video_enhancement/b. code/test/kernel_2.vcd
$date
	Fri Nov 10 16:47:21 2023
$end
$version
	Icarus Verilog
$end
$timescale
	1ps
$end
$scope module kernel_2_tb $end
$var wire 9 ! pixel_out [8:0] $end
$var reg 1 " clk_in $end
$var reg 1 # rst_in $end
$scope module uut $end
$var wire 1 " clk_in $end
$var wire 6 $ p1 [5:0] $end
$var wire 6 % p2 [5:0] $end
$var wire 6 & p3 [5:0] $end
$var wire 6 ' p4 [5:0] $end
$var reg 7 ( m14 [6:0] $end
$var reg 10 ) m2 [9:0] $end
$var reg 10 * m3 [9:0] $end
$var reg 11 + neg [10:0] $end
$var reg 9 , pixel_out [8:0] $end
$var reg 11 - pos [10:0] $end
$upscope $end
$upscope $end
$enddefinitions $end
$comment Show the parameter values. $end
$dumpall
$end
#0
$dumpvars
bx -
bx ,
bx +
bx *
bx )
bx (
bx '
bx &
bx %
bx $
0#
0"
bx !
$end
#5000
b0xxxxxxx +
1"
#10000
0"
1#
#15000
1"
#20000
0"
b0 '
b0 &
b0 %
b0 $
0#
#25000
b0 *
b0 )
b0 (
1"
#30000
0"
b100000 '
b100000 &
b100000 %
b100000 $
#35000
b0 +
b0 -
b100100000 *
b100100000 )
b1000000 (
1"
#40000
0"
b111111 '
b111111 &
b111111 %
b111111 $
#45000
b0 !
b0 ,
b1000000 +
b1001000000 -
b1000110111 *
b1000110111 )
b1111110 (
1"
#50000
0"
b0 '
b0 $
#55000
b10000000 !
b10000000 ,
b1111110 +
b10001101110 -
b0 (
1"
#60000
0"
b111111 '
b0 &
b0 %
b111111 $
#65000
b11111100 !
b11111100 ,
b0 +
b0 *
b0 )
b1111110 (
1"
#70000
0"
b111011 '
b1001 &
b110111 %
b100000 $
#75000
b100011011 !
b100011011 ,
b1111110 +
b0 -
b1010001 *
b111101111 )
b1011011 (
1"
#80000
0"
b110111 '
b1010 &
b1000 %
b110 $
#85000
b111100000 !
b111100000 ,
b1011011 +
b1001000000 -
b1011010 *
b1001000 )
b111101 (
1"
#90000
0"
b100110 '
b110001 &
b110011 %
b111011 $
#95000
b1111001 !
b1111001 ,
b111101 +
b10100010 -
b110111001 *
b111001011 )
b1100001 (
1"
#100000
0"
b1110 '
b11010 &
b110001 %
b11001 $
#105000
b11001 !
b11001 ,
b1100001 +
b1110000100 -
b11101010 *
b110111001 )
b100111 (
1"
#110000
0"
b1100 '
b1 &
b10010 %
b101010 $
#115000
b11001000 !
b11001000 ,
b100111 +
b1010100011 -
b1001 *
b10100010 )
b110110 (
1"
#120000
0"
b101 '
b10100 &
b111100 %
b1110 $
#125000
b10011111 !
b10011111 ,
b110110 +
b10101011 -
b10110100 *
b1000011100 )
b10011 (
1"
#130000
0"
b11110 '
b111010 &
b100000 %
b11011 $
#135000
b11101 !
b11101 ,
b10011 +
b1011010000 -
b1000001010 *
b100100000 )
b111001 (
1"
#140000
0"
b11 '
b100 &
b100110 %
b110010 $
#145000
b10101111 !
b10101111 ,
b111001 +
b1100101010 -
b100100 *
b101010110 )
b110101 (
1"
#150000
0"
b101001 '
b110110 &
b11100 %
b110011 $
#155000
b10111100 !
b10111100 ,
b110101 +
b101111010 -
b111100110 *
b11111100 )
b1011100 (
1"
#160000
0"
b111001 '
b111011 &
b111 %
b100100 $
#165000
b1010001 !
b1010001 ,
b1011100 +
b1011100010 -
b1000010011 *
b111111 )
b1011101 (
1"
#170000
0"
b11001 '
b11101 &
b100100 %
b10100 $
#175000
b10100001 !
b10100001 ,
b1011101 +
b1001010010 -
b100000101 *
b101000100 )
b101101 (
1"
#180000
0"
b110 '
b1100 &
b100001 %
b110001 $
#185000
b1111101 !
b1111101 ,
b101101 +
b1001001001 -
b1101100 *
b100101001 )
b110111 (
1"
#190000
0"
b11 '
b0 &
b100000 %
b10101 $
#195000
b10000111 !
b10000111 ,
b110111 +
b110010101 -
b0 *
b100100000 )
b11000 (
1"
#200000
0"
b100010 '
b10 &
b110111 %
b100111 $
#205000
b1010111 !
b1010111 ,
b11000 +
b100100000 -
b10010 *
b111101111 )
b1001001 (
1"
#210000
0"
b11010 '
b1010 &
b100101 %
b110010 $
#215000
b1000010 !
b1000010 ,
b1001001 +
b1000000001 -
b1011010 *
b101001101 )
b1001100 (
1"
#220000
0"
b101 '
b110100 &
b0 %
b110000 $
#225000
b1101110 !
b1101110 ,
b1001100 +
b110100111 -
b111010100 *
b0 )
b110101 (
1"
#230000
0"
b10000 '
b100110 &
b10100 %
b10011 $
#235000
b1010110 !
b1010110 ,
b110101 +
b111010100 -
b101010110 *
b10110100 )
b100011 (
1"
#240000
0"
b11010 '
b101001 &
b10000 %
b11 $
#245000
b1100111 !
b1100111 ,
b100011 +
b1000001010 -
b101110001 *
b10010000 )
b11101 (
1"
#250000
0"
b10100 '
b10 &
b10100 %
b100000 $
#255000
b1111001 !
b1111001 ,
b11101 +
b1000000001 -
b10010 *
b10110100 )
b110100 (
1"
#260000
0"
b10010 '
b110010 &
b110100 %
b100101 $
#265000
b110100 +
b11000110 -
b111000010 *
b111010100 )
b110111 (
1"
#270000
0"
b100010 '
b10 &
b100 %
b11 $
#275000
b100100 !
b100100 ,
b110111 +
b1110010110 -
b10010 *
b100100 )
b100101 (
1"
#280000
0"
b101000 '
b100100 &
b100101 %
b10011 $
#285000
b11010111 !
b11010111 ,
b100101 +
b110110 -
b101000100 *
b101001101 )
b111011 (
1"
#290000
0"
b1011 '
b10000 &
b101001 %
b11010 $
#295000
b100 !
b100 ,
b111011 +
b1010010001 -
b10010000 *
b101110001 )
b100101 (
1"
#300000
0"
b101 '
b100000 &
b10101 %
b1010 $
#305000
b10010101 !
b10010101 ,
b100101 +
b1000000001 -
b100100000 *
b10111101 )
b1111 (
1"
#310000
0"
b11001 '
b110011 &
b110000 %
b100011 $
#315000
b1110111 !
b1110111 ,
b1111 +
b111011101 -
b111001011 *
b110110000 )
b111100 (
1"
#320000
0"
b10 '
b100010 &
b110 %
b101100 $
#325000
b1110011 !
b1110011 ,
b111100 +
b1101111011 -
b100110010 *
b110110 )
b101110 (
1"
#330000
0"
b111010 '
b1100 &
b100001 %
b11011 $
#335000
b11001111 !
b11001111 ,
b101110 +
b101101000 -
b1101100 *
b100101001 )
b1010101 (
1"
#340000
0"
b11010 '
b111001 &
b1011 %
b111010 $
#345000
b1001110 !
b1001110 ,
b1010101 +
b110010101 -
b1000000001 *
b1100011 )
b1010100 (
1"
#350000
0"
b100111 '
b1 &
b11100 %
b11110 $
#355000
b1010000 !
b1010000 ,
b1010100 +
b1001100100 -
b1001 *
b11111100 )
b1000101 (
1"
#360000
0"
b111010 '
b11 &
b11011 %
b111010 $
#365000
b10000100 !
b10000100 ,
b1000101 +
b100000101 -
b11011 *
b11110011 )
b1110100 (
1"
#370000
0"
b101100 '
b101010 &
b100 %
b110010 $
#375000
b110000 !
b110000 ,
b1110100 +
b100001110 -
b101111010 *
b100100 )
b1011110 (
1"
#380000
0"
b110111 '
b101001 &
b101011 %
b101011 $
#385000
b100110 !
b100110 ,
b1011110 +
b110011110 -
b101110001 *
b110000011 )
b1100010 (
1"
#390000
0"
b101001 '
b100100 &
b100011 %
b111010 $
#395000
b1010000 !
b1010000 ,
b1100010 +
b1011110100 -
b101000100 *
b100111011 )
b1100011 (
1"
#400000
0"
b100001 '
b1101 &
b10100 $
#405000
b10100100 !
b10100100 ,
b1100011 +
b1001111111 -
b1110101 *
b110101 (
1"
#410000
0"
b10101 '
b11111 &
b101100 %
b111010 $
#415000
b10000111 !
b10000111 ,
b110101 +
b110110000 -
b100010111 *
b110001100 )
b1001111 (
1"
#420000
0"
b10010 '
b10111 &
b110100 %
b110100 $
#425000
b1011110 !
b1011110 ,
b1001111 +
b1010100011 -
b11001111 *
b111010100 )
b1000110 (
1"
#430000
0"
b100010 '
b110111 &
b10 %
b10101 $
#435000
b10010101 !
b10010101 ,
b1000110 +
b111101111 *
b10010 )
b110111 (
1"
#440000
0"
b101101 '
b100011 &
b110010 %
b111011 $
#445000
b10010111 !
b10010111 ,
b110111 +
b1000000001 -
b100111011 *
b111000010 )
b1101000 (
1"
#450000
0"
b110011 '
b100110 &
b101111 %
b110 $
#455000
b1110010 !
b1110010 ,
b1101000 +
b1011111101 -
b101010110 *
b110100111 )
b111001 (
1"
#460000
0"
b0 '
b100100 &
b101101 %
b10010 $
#465000
b10100101 !
b10100101 ,
b111001 +
b101000100 *
b110010101 )
b10010 (
1"
#470000
0"
b100100 '
b100101 &
b111011 %
b111 $
#475000
b10110001 !
b10110001 ,
b10010 +
b1011011001 -
b101001101 *
b1000010011 )
b101011 (
1"
#480000
0"
b101 '
b111010 &
b11001 %
b11010 $
#485000
b101011 +
b1101100000 -
b1000001010 *
b11100001 )
b11111 (
1"
#490000
0"
b10111 '
b100000 &
b110010 %
b11100 $
#495000
b11001101 !
b11001101 ,
b11111 +
b1011101011 -
b100100000 *
b111000010 )
b110011 (
1"
#500000
0"
b1000 '
b110101 &
b111100 %
b110111 $
#505000
b10110011 !
b10110011 ,
b110011 +
b1011100010 -
b111011101 *
b1000011100 )
b111111 (
1"
#510000
0"
b10011 '
b11101 &
b10001 %
b101010 $
#515000
b10101011 !
b10101011 ,
b111111 +
b1111111001 -
b100000101 *
b10011001 )
b111101 (
1"
#520000
0"
b10010 '
b101001 &
b10101 %
b11011 $
#525000
b11101110 !
b11101110 ,
b111101 +
b110011110 -
b101110001 *
b10111101 )
b101101 (
1"
#530000
0"
b101000 '
b100000 &
b110011 %
b100010 $
#535000
b1011000 !
b1011000 ,
b101101 +
b1000101110 -
b100100000 *
b111001011 )
b1001010 (
1"
#540000
0"
b11100 '
b10101 &
b101010 %
b11101 $
#545000
b10000000 !
b10000000 ,
b1001010 +
b1011101011 -
b10111101 *
b101111010 )
b111001 (
1"
#550000
0"
b110110 &
b1011 %
b100001 $
#555000
b10101000 !
b10101000 ,
b111001 +
b1000110111 -
b111100110 *
b1100011 )
b111101 (
1"
#560000
0"
b1001 '
b11 &
b111010 %
b1 $
#565000
b1111111 !
b1111111 ,
b111101 +
b1001001001 -
b11011 *
b1000001010 )
b1010 (
1"
#570000
0"
b101010 '
b101110 &
b11001 %
b1101 $
#575000
b10000011 !
b10000011 ,
b1010 +
b1000100101 -
b110011110 *
b11100001 )
b110111 (
1"
#580000
0"
b11001 '
b10001 &
b111101 %
b1011 $
#585000
b10000110 !
b10000110 ,
b110111 +
b1001111111 -
b10011001 *
b1000100101 )
b100100 (
1"
#590000
0"
b11100 '
b100011 &
b101000 %
b110100 $
#595000
b10010010 !
b10010010 ,
b100100 +
b1010111110 -
b100111011 *
b101101000 )
b1010000 (
1"
#600000
0"
b10111 '
b10111 &
b100010 %
b110 $
#605000
b10100110 !
b10100110 ,
b1010000 +
b1010100011 -
b11001111 *
b100110010 )
b11101 (
1"
#610000
0"
b110011 '
b10110 &
b111 %
b100110 $
#615000
b10010100 !
b10010100 ,
b11101 +
b1000000001 -
b11000110 *
b111111 )
b1011001 (
1"
#620000
0"
b11110 '
b111101 &
b11111 %
b111000 $
#625000
b1111001 !
b1111001 ,
b1011001 +
b100000101 -
b1000100101 *
b100010111 )
b1010110 (
1"
#630000
0"
b100010 '
b111000 &
b111 %
b110001 $
#635000
b101011 !
b101011 ,
b1010110 +
b1100111100 -
b111111000 *
b111111 )
b1010011 (
1"
#640000
0"
b11001 '
b10001 &
b11111 %
b10011 $
#645000
b10111001 !
b10111001 ,
b1010011 +
b1000110111 -
b10011001 *
b100010111 )
b101100 (
1"
#650000
0"
b101111 '
b10101 &
b1001 %
b100010 $
#655000
b1111001 !
b1111001 ,
b101100 +
b110110000 -
b10111101 *
b1010001 )
b1010001 (
1"
#660000
0"
b10110 '
b10100 &
b110110 %
b100000 $
#665000
b1100001 !
b1100001 ,
b1010001 +
b100001110 -
b10110100 *
b111100110 )
b110110 (
1"
#670000
0"
b111110 '
b101110 &
b110010 %
b111 $
#675000
b101111 !
b101111 ,
b110110 +
b1010011010 -
b110011110 *
b111000010 )
b1000101 (
1"
#680000
0"
b100010 '
b111101 &
b11010 %
b11001 $
#685000
b10011001 !
b10011001 ,
b1000101 +
b1101100000 -
b1000100101 *
b11101010 )
b111011 (
1"
#690000
0"
b10 '
b110000 &
b100101 %
b111101 $
#695000
b11000110 !
b11000110 ,
b111011 +
b1100001111 -
b110110000 *
b101001101 )
b111111 (
1"
#700000
0"
b101 '
b100000 &
b101010 %
b100 $
#705000
b10110101 !
b10110101 ,
b111111 +
b1011111101 -
b100100000 *
b101111010 )
b1001 (
1"
#710000
0"
b110100 '
b11001 &
b111001 %
b110011 $
#715000
b10101111 !
b10101111 ,
b1001 +
b1010011010 -
b11100001 *
b1000000001 )
b1100111 (
1"
#720000
0"
b111000 '
b101100 &
b111101 %
b10010 $
#725000
b10100100 !
b10100100 ,
b1100111 +
b1011100010 -
b110001100 *
b1000100101 )
b1001010 (
1"
#730000
0"
b110000 '
b10001 &
b110010 %
b10111 $
#735000
b10011110 !
b10011110 ,
b1001010 +
b1110110001 -
b10011001 *
b111000010 )
b1000111 (
1"
#740000
0"
b101101 '
b11101 &
b110100 %
b111 $
#745000
b11011001 !
b11011001 ,
b1000111 +
b1001011011 -
b100000101 *
b111010100 )
b110100 (
1"
#750000
0"
b110 '
b110101 &
b100011 %
b111000 $
#755000
b10000101 !
b10000101 ,
b110100 +
b1011011001 -
b111011101 *
b100111011 )
b111110 (
1"
#760000
0"
b111010 '
b111010 &
b110000 %
b1111 $
#765000
b10101001 !
b10101001 ,
b111110 +
b1100011000 -
b1000001010 *
b110110000 )
b1001001 (
1"
#770000
0"
b0 '
b100 &
b11011 %
b110101 $
#775000
b10110110 !
b10110110 ,
b1001001 +
b1110111010 -
b100100 *
b11110011 )
b110101 (
1"
#780000
0"
b100101 &
b1100 %
b100110 $
#785000
b11011100 !
b11011100 ,
b110101 +
b100010111 -
b101001101 *
b1101100 )
b100110 (
1"
#790000
0"
b1110 '
b11 &
b111100 %
b10010 $
#795000
b111000 !
b111000 ,
b100110 +
b110111001 -
b11011 *
b1000011100 )
b100000 (
1"
#800000
0"
b1000 '
b1000 &
b10111 %
b1100 $
#805000
b1100100 !
b1100100 ,
b100000 +
b1000110111 -
b1001000 *
b11001111 )
b10100 (
1"
#810000
0"
b100010 '
b10111 &
b111 %
b10101 $
#815000
b10000101 !
b10000101 ,
b10100 +
b100010111 -
b11001111 *
b111111 )
b110111 (
1"
#820000
0"
b110010 '
b10001 &
b100001 %
b1001 $
#825000
b1000000 !
b1000000 ,
b110111 +
b100001110 -
b10011001 *
b100101001 )
b111011 (
1"
#830000
0"
b10101 '
b101110 &
b10011 %
b101 $
#835000
b110101 !
b110101 ,
b111011 +
b111000010 -
b110011110 *
b10101011 )
b11010 (
1"
#840000
0"
b100010 '
b1101 &
b10010 %
b11100 $
#845000
b1100001 !
b1100001 ,
b11010 +
b1001001001 -
b1110101 *
b10100010 )
b111110 (
1"
#850000
0"
b111010 '
b111 &
b11010 %
b11110 $
#855000
b10001011 !
b10001011 ,
b111110 +
b100010111 -
b111111 *
b11101010 )
b1011000 (
1"
#860000
0"
b100001 '
b110001 &
b11001 %
b111001 $
#865000
b110110 !
b110110 ,
b1011000 +
b100101001 -
b110111001 *
b11100001 )
b1011010 (
1"
#870000
0"
b101111 '
b11001 &
b11 %
b110110 $
#875000
b110100 !
b110100 ,
b1011010 +
b1010011010 -
b11100001 *
b11011 )
b1100101 (
1"
#880000
0"
b110011 '
b10110 &
b111000 %
b101010 $
#885000
b10010000 !
b10010000 ,
b1100101 +
b11111100 -
b11000110 *
b111111000 )
b1011101 (
1"
#890000
0"
b110 '
b10001 &
b11001 %
b110011 $
#895000
b100101 !
b100101 ,
b1011101 +
b1010111110 -
b10011001 *
b11100001 )
b111001 (
1"
#900000
0"
b101111 '
b10011 &
b10111 %
b110100 $
#905000
b10011000 !
b10011000 ,
b111001 +
b101111010 -
b10101011 *
b11001111 )
b1100011 (
1"
#910000
0"
b11001 '
b10110 &
b10110 %
b101011 $
#915000
b1010000 !
b1010000 ,
b1100011 +
b11000110 *
b11000110 )
b1000100 (
1"
#920000
0"
b100101 '
b100111 &
b111001 %
b10 $
#925000
b1000101 !
b1000101 ,
b1000100 +
b110001100 -
b101011111 *
b1000000001 )
b100111 (
1"
#930000
0"
b1100 '
b1010 &
b110001 %
b1111 $
#935000
b1010010 !
b1010010 ,
b100111 +
b1101100000 -
b1011010 *
b110111001 )
b11011 (
1"
#940000
0"
b110 '
b11 &
b1100 %
b100010 $
#945000
b11001110 !
b11001110 ,
b11011 +
b1000010011 -
b11011 *
b1101100 )
b101000 (
1"
#950000
0"
b10010 '
b1110 &
b110000 $
#955000
b1111110 !
b1111110 ,
b101000 +
b10000111 -
b1111110 *
b1000010 (
1"
#960000
0"
b101011 '
b10 &
b101101 %
b110001 $
#965000
b10111 !
b10111 ,
b1000010 +
b11101010 -
b10010 *
b110010101 )
b1011100 (
1"
#970000
0"
b110100 '
b10001 &
b11011 %
b111 $
#975000
b101010 !
b101010 ,
b1011100 +
b110100111 -
b10011001 *
b11110011 )
b111011 (
1"
#980000
0"
b111000 '
b1100 &
b10110 %
b1111 $
#985000
b1010010 !
b1010010 ,
b111011 +
b110001100 -
b1101100 *
b11000110 )
b1000111 (
1"
#990000
0"
b100110 '
b100101 &
b100000 %
b111101 $
#995000
b1010100 !
b1010100 ,
b1000111 +
b100110010 -
b101001101 *
b100100000 )
b1100011 (
1"
#1000000
0"
b1111 '
b111 &
b10101 %
b1111 $
#1005000
b111010 !
b111010 ,
b1100011 +
b1001101101 -
b111111 *
b10111101 )
b11110 (
1"
#1010000
0"
b1001 '
b101010 &
b11010 %
b101110 $
#1015000
b10000010 !
b10000010 ,
b11110 +
b11111100 -
b101111010 *
b11101010 )
b110111 (
1"
#1020000
0"
b1 '
b111000 &
b111 %
b10000 $
#1025000
b110111 !
b110111 ,
b110111 +
b1001100100 -
b111111000 *
b111111 )
b10001 (
1"
#1030000
0"
b110000 '
b111011 &
b100011 %
b100110 $
#1035000
b10001011 !
b10001011 ,
b10001 +
b1000110111 -
b1000010011 *
b100111011 )
b1010110 (
1"
#1040000
0"
b100101 '
b110101 &
b101011 %
b101011 $
#1045000
b10001001 !
b10001001 ,
b1010110 +
b1101001110 -
b111011101 *
b110000011 )
b1010000 (
1"
#1050000
0"
b100000 '
b1101 &
b10 %
b10110 $
#1055000
b10111110 !
b10111110 ,
b1010000 +
b1101100000 -
b1110101 *
b10010 )
b110110 (
1"
#1060000
0"
b1101 '
b111 &
b101101 %
b10010 $
#1065000
b11000100 !
b11000100 ,
b110110 +
b10000111 -
b111111 *
b110010101 )
b11111 (
1"
#1070000
0"
#1075000
b10100 !
b10100 ,
b11111 +
b111010100 -
1"
#1080000
0"
#1085000
b1101101 !
b1101101 ,
1"
