video_enhancement/b. code/test/kernel_5.vcd
$date
	Fri Nov 10 16:51:00 2023
$end
$version
	Icarus Verilog
$end
$timescale
	1ps
$end
$scope module kernel_5_tb $end
$var wire 9 ! pixel_out [8:0] $end
$var reg 1 " clk_in $end
$var reg 1 # rst_in $end
$scope module uut $end
$var wire 1 " clk_in $end
$var reg 12 $ neg_1 [11:0] $end
$var reg 12 % neg_2 [11:0] $end
$var reg 9 & pixel_out [8:0] $end
$var reg 15 ' pos [14:0] $end
$scope begin $ivl_for_loop2 $end
$var integer 32 ( i [31:0] $end
$scope begin $ivl_for_loop3 $end
$var integer 32 ) j [31:0] $end
$upscope $end
$upscope $end
$scope begin $ivl_for_loop4 $end
$var integer 32 * i [31:0] $end
$scope begin $ivl_for_loop5 $end
$var integer 32 + j [31:0] $end
$upscope $end
$upscope $end
$upscope $end
$upscope $end
$enddefinitions $end
$comment Show the parameter values. $end
$dumpall
$end
#0
$dumpvars
b0 +
b0 *
b0 )
b0 (
bx '
bx &
bx %
bx $
0#
0"
bx !
$end
#5000
b10 *
b10 +
b10 (
b100 )
1"
#10000
0"
1#
#15000
b10 +
b10 *
b100 )
b10 (
1"
#20000
0"
0#
#25000
b10 +
b10 *
b100 )
b10 (
1"
#30000
0"
#35000
b10 +
b10 *
b100 )
b10 (
1"
#40000
0"
#45000
b0 '
b0 %
b0 $
b10 +
b10 *
b100 )
b10 (
1"
#50000
0"
#55000
b0 !
b0 &
b10100010000000 '
b10010000000 %
b10000000000 $
b10 +
b10 *
b100 )
b10 (
1"
#60000
0"
#65000
b10000000 !
b10000000 &
b100111110111100 '
b100011011100 %
b11111100000 $
b10 +
b10 *
b100 )
b10 (
1"
#70000
0"
#75000
b11111100 !
b11111100 &
b0 %
b111100000100 $
b10 +
b10 *
b100 )
b10 (
1"
#80000
0"
#85000
b100000010 !
b100000010 &
b0 '
b100011011100 %
b100011011100 $
b10 +
b10 *
b100 )
b10 (
1"
#90000
0"
#95000
b110111001 !
b110111001 &
b10010101010110 '
b10001000001 %
b1001111011 $
b10 +
b10 *
b100 )
b10 (
1"
#100000
0"
#105000
b1111010 !
b1111010 &
b10111101110110 '
b10011100011 %
b10000000110 $
b10 +
b10 *
b100 )
b10 (
1"
#110000
0"
#115000
b10011010 !
b10011010 &
b1101110000111 '
b1010110101 %
b1100111100 $
b10 +
b10 *
b100 )
b10 (
1"
#120000
0"
#125000
b1010110 !
b1010110 &
b11100010100011 '
b10110001110 %
b10010011011 $
b10 +
b10 *
b100 )
b10 (
1"
#130000
0"
#135000
b10111001 !
b10111001 &
b11100101000101 '
b1011111101 %
b1110110101 $
b10 +
b10 *
b100 )
b10 (
1"
#140000
0"
#145000
b11001010 !
b11001010 &
b10001101110000 '
b10000111000 %
b1000110011 $
b10 +
b10 *
b100 )
b10 (
1"
#150000
0"
#155000
b1110100 !
b1110100 &
b10010010110100 '
b10100000111 %
b1110000111 $
b10 +
b10 *
b100 )
b10 (
1"
#160000
0"
#165000
b1110000 !
b1110000 &
b10010100000101 '
b10110100000 %
b1011100101 $
b10 +
b10 *
b100 )
b10 (
1"
#170000
0"
#175000
b1110010 !
b1110010 &
b10100100100010 '
b111010100 %
b10010010101 $
b10 +
b10 *
b100 )
b10 (
1"
#180000
0"
#185000
b10001010 !
b10001010 &
b10010001100011 '
b1010100011 %
b1001100101 $
b10 +
b10 *
b100 )
b10 (
1"
#190000
0"
#195000
b1111101 !
b1111101 &
b10011011101011 '
b1110111010 %
b10011001001 $
b10 +
b10 *
b100 )
b10 (
1"
#200000
0"
#205000
b1111001 !
b1111001 &
b100000000111011 '
b10111111010 %
b1111011011 $
b10 +
b10 *
b100 )
b10 (
1"
#210000
0"
#215000
b11011001 !
b11011001 &
b11100011110100 '
b11000001100 %
b10000101011 $
b10 +
b10 *
b100 )
b10 (
1"
#220000
0"
#225000
b10111010 !
b10111010 &
b11110100010001 '
b11011001001 %
b10000000001 $
b10 +
b10 *
b100 )
b10 (
1"
#230000
0"
#235000
b11001001 !
b11001001 &
b11000000011000 '
b10011011010 %
b1001011011 $
b10 +
b10 *
b100 )
b10 (
1"
#240000
0"
#245000
b10100011 !
b10100011 &
b10000010010111 '
b10100000111 %
b1101011001 $
b10 +
b10 *
b100 )
b10 (
1"
#250000
0"
#255000
b1100000 !
b1100000 &
b10001000101100 '
b10101001111 %
b10011111000 $
b10 +
b10 *
b100 )
b10 (
1"
#260000
0"
#265000
b1011111 !
b1011111 &
b100010010101001 '
b1001000000 %
b1111110111 $
b10 +
b10 *
b100 )
b10 (
1"
#270000
0"
#275000
b11111001 !
b11111001 &
b10111100100101 '
b100101001 %
b10010111100 $
b10 +
b10 *
b100 )
b10 (
1"
#280000
0"
#285000
b10100101 !
b10100101 &
b10111011010100 '
b10011110101 %
b1110100111 $
b10 +
b10 *
b100 )
b10 (
1"
#290000
0"
#295000
b10011000 !
b10011000 &
b10011001001001 '
b1110111010 %
b10010101011 $
b10 +
b10 *
b100 )
b10 (
1"
#300000
0"
#305000
b1110111 !
b1110111 &
b1110100011100 '
b1001000000 %
b1101011110 $
b10 +
b10 *
b100 )
b10 (
1"
#310000
0"
#315000
b1011101 !
b1011101 &
b10100000101111 '
b1111001100 %
b1110111110 $
b10 +
b10 *
b100 )
b10 (
1"
#320000
0"
#325000
b10000010 !
b10000010 &
b101011111 %
b1111011000 $
b10 +
b10 *
b100 )
b10 (
1"
#330000
0"
#335000
b10001011 !
b10001011 &
b10010101010110 '
b11101010 %
b1101111011 $
b10 +
b10 *
b100 )
b10 (
1"
#340000
0"
#345000
b10000011 !
b10000011 &
b10101000010101 '
b10111101000 %
b10010011100 $
b10 +
b10 *
b100 )
b10 (
1"
#350000
0"
#355000
b1111110 !
b1111110 &
b10001011001110 '
b1100101010 %
b10000101001 $
b10 +
b10 *
b100 )
b10 (
1"
#360000
0"
#365000
b1101101 !
b1101101 &
b11000110101101 '
b1100001111 %
b1010111011 $
b10 +
b10 *
b100 )
b10 (
1"
#370000
0"
#375000
b10101111 !
b10101111 &
b11010010000110 '
b10000001011 %
b1100100010 $
b10 +
b10 *
b100 )
b10 (
1"
#380000
0"
#385000
b10110101 !
b10110101 &
b10010101010110 '
b1111001100 %
b1110110111 $
b10 +
b10 *
b100 )
b10 (
1"
#390000
0"
#395000
b1110111 !
b1110111 &
b1111101010011 '
b10100110100 %
b10110111100 $
b10 +
b10 *
b100 )
b10 (
1"
#400000
0"
#405000
b1010001 !
b1010001 &
b10110100111111 '
b10110101001 %
b1010101011 $
b10 +
b10 *
b100 )
b10 (
1"
#410000
0"
#415000
b10010011 !
b10010011 &
b11110100010001 '
b10100101011 %
b10001100111 $
b10 +
b10 *
b100 )
b10 (
1"
#420000
0"
#425000
b11001101 !
b11001101 &
b1111111110101 '
b10010110110 %
b1011100001 $
b10 +
b10 *
b100 )
b10 (
1"
#430000
0"
#435000
b1100001 !
b1100001 &
b11000101011100 '
b10000011101 %
b10110000110 $
b10 +
b10 *
b100 )
b10 (
1"
#440000
0"
#445000
b10011110 !
b10011110 &
b10100010000000 '
b1011101011 %
b1011101110 $
b10 +
b10 *
b100 )
b10 (
1"
#450000
0"
#455000
b10001010 !
b10001010 &
b1100101010000 '
b10000101111 %
b1010000101 $
b10 +
b10 *
b100 )
b10 (
1"
#460000
0"
#465000
b1001010 !
b1001010 &
b1101011100101 '
b10100010000 %
b1001011001 $
b10 +
b10 *
b100 )
b10 (
1"
#470000
0"
#475000
b1001101 !
b1001101 &
b10110011101110 '
b1111001100 %
b1101011000 $
b10 +
b10 *
b100 )
b10 (
1"
#480000
0"
#485000
b10010111 !
b10010111 &
b1111101010011 '
b1111111001 %
b1111001111 $
b10 +
b10 *
b100 )
b10 (
1"
#490000
0"
#495000
b1011110 !
b1011110 &
b1100110100001 '
b10100000111 %
b1011110001 $
b10 +
b10 *
b100 )
b10 (
1"
#500000
0"
#505000
b1000110 !
b1000110 &
b1111111110101 '
b10011110101 %
b1010100101 $
b10 +
b10 *
b100 )
b10 (
1"
#510000
0"
#515000
b1100001 !
b1100001 &
b10100100100010 '
b10010101101 %
b10110000000 $
b10 +
b10 *
b100 )
b10 (
1"
#520000
0"
#525000
b1111011 !
b1111011 &
b11010000110101 '
b10011011010 %
b1111111110 $
b10 +
b10 *
b100 )
b10 (
1"
#530000
0"
#535000
b10101101 !
b10101101 &
b10000111011011 '
b11000011110 %
b111110010 $
b10 +
b10 *
b100 )
b10 (
1"
#540000
0"
#545000
b1100111 !
b1100111 &
b10110001001100 '
b10110000101 %
b110111000 $
b10 +
b10 *
b100 )
b10 (
1"
#550000
0"
#555000
b10010100 !
b10010100 &
b1101001000011 '
b1100100001 %
b1111110100 $
b10 +
b10 *
b100 )
b10 (
1"
#560000
0"
#565000
b1001100 !
b1001100 &
b11001001001111 '
b1100101010 %
b10110101111 $
b10 +
b10 *
b100 )
b10 (
1"
#570000
0"
#575000
b10100101 !
b10100101 &
b1111100000010 '
b10100101011 %
b1110000100 $
b10 +
b10 *
b100 )
b10 (
1"
#580000
0"
#585000
b1011001 !
b1011001 &
b10010110100111 '
b1110101000 %
b1001100111 $
b10 +
b10 *
b100 )
b10 (
1"
#590000
0"
#595000
b1111110 !
b1111110 &
b1111101010011 '
b1111000011 %
b10010011110 $
b10 +
b10 *
b100 )
b10 (
1"
#600000
0"
#605000
b1011011 !
b1011011 &
b11010111001010 '
b1100100001 %
b1011101001 $
b10 +
b10 *
b100 )
b10 (
1"
#610000
0"
#615000
b10111111 !
b10111111 &
b11010011010111 '
b10100110100 %
b11011010 $
b10 +
b10 *
b100 )
b10 (
1"
#620000
0"
#625000
b10111011 !
b10111011 &
b10000100111001 '
b1110000100 %
b10101010000 $
b10 +
b10 *
b100 )
b10 (
1"
#630000
0"
#635000
b1100001 !
b1100001 &
b1110000101001 '
b1100011000 %
b1110101010 $
b10 +
b10 *
b100 )
b10 (
1"
#640000
0"
#645000
b1010101 !
b1010101 &
b1111111110101 '
b10100011001 %
b1111111101 $
b10 +
b10 *
b100 )
b10 (
1"
#650000
0"
#655000
b1011011 !
b1011011 &
b10101110101010 '
b1111000011 %
b11000001100 $
b10 +
b10 *
b100 )
b10 (
1"
#660000
0"
#665000
b10000111 !
b10000111 &
b10010110100111 '
b11011010010 %
b1001110000 $
b10 +
b10 *
b100 )
b10 (
1"
#670000
0"
#675000
b1110001 !
b1110001 &
b10001011001110 '
b10010001001 %
b1101111100 $
b10 +
b10 *
b100 )
b10 (
1"
#680000
0"
#685000
b1101011 !
b1101011 &
b10010100000101 '
b10010011011 %
b10001001111 $
b10 +
b10 *
b100 )
b10 (
1"
#690000
0"
#695000
b1110000 !
b1110000 &
b11010101111001 '
b1001111111 %
b1001100000 $
b10 +
b10 *
b100 )
b10 (
1"
#700000
0"
#705000
b11000010 !
b11000010 &
b10111011010100 '
b10101001111 %
b10110010100 $
b10 +
b10 *
b100 )
b10 (
1"
#710000
0"
#715000
b10001111 !
b10001111 &
b10110111100001 '
b11001001011 %
b10011111001 $
b10 +
b10 *
b100 )
b10 (
1"
#720000
0"
#725000
b10001010 !
b10001010 &
b111100110000 '
b10011010001 %
b10001000000 $
b10 +
b10 *
b100 )
b10 (
1"
#730000
0"
#735000
b11000 !
b11000 &
b11000100001011 '
b1101100000 %
b1101111000 $
b10 +
b10 *
b100 )
b10 (
1"
#740000
0"
#745000
b10101000 !
b10101000 &
b10101100001000 '
b10100110100 %
b1000110000 $
b10 +
b10 *
b100 )
b10 (
1"
#750000
0"
#755000
b10001110 !
b10001110 &
b10111000110010 '
b10100100010 %
b1011011101 $
b10 +
b10 *
b100 )
b10 (
1"
#760000
0"
#765000
b10011000 !
b10011000 &
b1110110111110 '
b10001010011 %
b10001100010 $
b10 +
b10 *
b100 )
b10 (
1"
#770000
0"
#775000
b1010100 !
b1010100 &
b101101100100 '
b1101111011 %
b1011101110 $
b10 +
b10 *
b100 )
b10 (
1"
#780000
0"
#785000
b10011 !
b10011 &
b10100000101111 '
b10110100000 %
b1001100110 $
b10 +
b10 *
b100 )
b10 (
1"
#790000
0"
#795000
b10000000 !
b10000000 &
b10011010011010 '
b1101010111 %
b1011001100 $
b10 +
b10 *
b100 )
b10 (
1"
#800000
0"
#805000
b10000001 !
b10000001 &
b1011011001000 '
b10011100011 %
b1111000011 $
b10 +
b10 *
b100 )
b10 (
1"
#810000
0"
#815000
b111000 !
b111000 &
b10011110001101 '
b10011101100 %
b1100001001 $
b10 +
b10 *
b100 )
b10 (
1"
#820000
0"
#825000
b1111110 !
b1111110 &
b11000100001011 '
b1101100000 %
b1111001001 $
b10 +
b10 *
b100 )
b10 (
1"
#830000
0"
#835000
b10100111 !
b10100111 &
b1001000001001 '
b11010010011 %
b1011001111 $
b10 +
b10 *
b100 )
b10 (
1"
#840000
0"
#845000
b100010 !
b100010 &
b11100111100111 '
b1100011000 %
b11001101110 $
b10 +
b10 *
b100 )
b10 (
1"
#850000
0"
#855000
b11000001 !
b11000001 &
b10100011010001 '
b10010011011 %
b10100110001 $
b10 +
b10 *
b100 )
b10 (
1"
#860000
0"
#865000
b1111100 !
b1111100 &
b1110100011100 '
b11001011101 %
b10111100111 $
b10 +
b10 *
b100 )
b10 (
1"
#870000
0"
#875000
b1000011 !
b1000011 &
b11001101000010 '
b1101000101 %
b10100011111 $
b10 +
b10 *
b100 )
b10 (
1"
#880000
0"
#885000
b10101011 !
b10101011 &
b10000010010111 '
b10100101011 %
b1010010010 $
b10 +
b10 *
b100 )
b10 (
1"
#890000
0"
#895000
b1100011 !
b1100011 &
b11011101011111 '
b10111010110 %
b1110010010 $
b10 +
b10 *
b100 )
b10 (
1"
#900000
0"
#905000
b10110111 !
b10110111 &
b10000100111001 '
b10010010010 %
b1100011010 $
b10 +
b10 *
b100 )
b10 (
1"
#910000
0"
#915000
b1100110 !
b1100110 &
b1011001110111 '
b10110111011 %
b1110001110 $
b10 +
b10 *
b100 )
b10 (
1"
#920000
0"
#925000
b110100 !
b110100 &
b10100100100010 '
b10001010011 %
b1010111111 $
b10 +
b10 *
b100 )
b10 (
1"
#930000
0"
#935000
b10001000 !
b10001000 &
b10110011101110 '
b11010100101 %
b10000011000 $
b10 +
b10 *
b100 )
b10 (
1"
#940000
0"
#945000
b10110001001100 '
b10010001001 %
b1010100010 $
b10 +
b10 *
b100 )
b10 (
1"
#950000
0"
#955000
b10010100 !
b10010100 &
b1111100000010 '
b10000000010 %
b10010100101 $
b10 +
b10 *
b100 )
b10 (
1"
#960000
0"
#965000
b1011001 !
b1011001 &
b110111101100 '
b10010001001 %
b10001001100 $
b10 +
b10 *
b100 )
b10 (
1"
#970000
0"
#975000
b10100 !
b10100 &
b11011010111101 '
b10001100101 %
b1001100110 $
b10 +
b10 *
b100 )
b10 (
1"
#980000
0"
#985000
b10111111 !
b10111111 &
b11000111111110 '
b1111000011 %
b1001100111 $
b10 +
b10 *
b100 )
b10 (
1"
#990000
0"
#995000
b10101111 !
b10101111 &
b1011110111011 '
b10011100011 %
b10011110010 $
b10 +
b10 *
b100 )
b10 (
1"
#1000000
0"
#1005000
b110111 !
b110111 &
b10111000110010 '
b1100101010 %
b1011101100 $
b10 +
b10 *
b100 )
b10 (
1"
#1010000
0"
#1015000
b10100000 !
b10100000 &
b10110001001100 '
b10110010111 %
b10011111010 $
b10 +
b10 *
b100 )
b10 (
1"
#1020000
0"
#1025000
b10000110 !
b10000110 &
b11011101011111 '
b1101001110 %
b10000101110 $
b10 +
b10 *
b100 )
b10 (
1"
#1030000
0"
#1035000
b10111111 !
b10111111 &
b10001100011111 '
b10111101000 %
b10110100110 $
b10 +
b10 *
b100 )
b10 (
1"
#1040000
0"
#1045000
b1011110 !
b1011110 &
b10010010110100 '
b10011101100 %
b10011000011 $
b10 +
b10 *
b100 )
b10 (
1"
#1050000
0"
#1055000
b1101100 !
b1101100 &
b11011000011011 '
b10101000110 %
b1100111011 $
b10 +
b10 *
b100 )
b10 (
1"
#1060000
0"
#1065000
b10110110 !
b10110110 &
b10011011101011 '
b10100110100 %
b10010100000 $
b10 +
b10 *
b100 )
b10 (
1"
#1070000
0"
#1075000
b1110100 !
b1110100 &
b1001110011110 '
b10010010010 %
b1001111010 $
b10 +
b10 *
b100 )
b10 (
1"
#1080000
0"
#1085000
b110010 !
b110010 &
b11101101111100 '
b1010100011 %
b11110011000 $
b10 +
b10 *
b100 )
b10 (
1"
#1090000
0"
#1095000
b11000101 !
b11000101 &
b10 +
b10 *
b100 )
b10 (
1"
#1100000
0"
#1105000
b10 +
b10 *
b100 )
b10 (
1"
