video_enhancement/b. code/test/kernel_4.vcd
$date
	Fri Nov 10 16:48:09 2023
$end
$version
	Icarus Verilog
$end
$timescale
	1ps
$end
$scope module kernel_4_tb $end
$var wire 9 ! pixel_out [8:0] $end
$var reg 1 " clk_in $end
$var reg 1 # rst_in $end
$scope module uut $end
$var wire 1 " clk_in $end
$var reg 15 $ neg_01 [14:0] $end
$var reg 15 % neg_02 [14:0] $end
$var reg 15 & neg_1 [14:0] $end
$var reg 15 ' neg_10 [14:0] $end
$var reg 15 ( neg_13 [14:0] $end
$var reg 15 ) neg_2 [14:0] $end
$var reg 9 * pixel_out [8:0] $end
$var reg 16 + pos [15:0] $end
$var reg 9 , pos_00_03 [8:0] $end
$var reg 15 - pos_11 [14:0] $end
$var reg 15 . pos_12 [14:0] $end
$scope begin $ivl_for_loop0 $end
$var integer 32 / i [31:0] $end
$scope begin $ivl_for_loop1 $end
$var integer 32 0 j [31:0] $end
$upscope $end
$upscope $end
$upscope $end
$upscope $end
$enddefinitions $end
$comment Show the parameter values. $end
$dumpall
$end
#0
$dumpvars
b0 0
b0 /
bx .
bx -
bx ,
bx +
bx *
bx )
bx (
bx '
bx &
bx %
bx $
0#
0"
bx !
$end
#5000
b10 /
b100 0
1"
#10000
0"
1#
#15000
b100 0
b10 /
1"
#20000
0"
0#
#25000
b100 0
b10 /
1"
#30000
0"
#35000
b0 (
b0 .
b0 -
b0 '
b0 %
b0 $
b0 ,
b100 0
b10 /
1"
#40000
0"
#45000
b0 )
b0 &
b0 +
b111000000 (
b1000001000000 .
b11111010000000 -
b10100000000 '
b111000000 %
b11100000000 $
b11000000 ,
b100 0
b10 /
1"
#50000
0"
#55000
b0 !
b0 *
b11011000000 )
b100011000000 &
b100111110000000 +
b1101110010 (
b1111111111110 .
b111101100001100 -
b100111011000 '
b1101110010 %
b110111001000 $
b101111010 ,
b100 0
b10 /
1"
#60000
0"
#65000
b10000000 !
b10000000 *
b110101001010 )
b1000100111010 &
b1001110010000100 +
b0 (
b0 '
b0 %
b0 $
b100 0
b10 /
1"
#70000
0"
#75000
b11111100 !
b11111100 *
b0 )
b0 &
b1101110010 (
b0 .
b0 -
b100111011000 '
b1101110010 %
b110111001000 $
b0 ,
b100 0
b10 /
1"
#80000
0"
#85000
b100111001 !
b100111001 *
b110101001010 )
b1000100111010 &
b0 +
b11110101 (
b100101100101 .
b1011101110000 -
b1001011000 '
b1100010000 %
b11010010000 $
b100100000 ,
b100 0
b10 /
1"
#90000
0"
#95000
b111000010 !
b111000010 *
b1101001101 )
b100110100000 &
b10000111110101 +
b1000100010 (
b110101110101 .
b11000111001110 -
b10000100100 '
b111010101 %
b1111010100 $
b1111111 ,
b100 0
b10 /
1"
#100000
0"
#105000
b101010 !
b101010 *
b11001000110 )
b10110101001 &
b11111111000010 +
b1001110110 (
b110001110001 .
b11001011001000 -
b1001000100 '
b100101101 %
b11000111100 $
b11001101 ,
b100 0
b10 /
1"
#110000
0"
#115000
b1100111 !
b1100111 *
b10010111010 )
b11101101001 &
b100000000000110 +
b111111111 (
b1000101000100 .
b101011011101010 -
b11110101000 '
b1010100000 %
b100111110100 $
b1011011 ,
b100 0
b10 /
1"
#120000
0"
#125000
b100110100111 )
b110010010100 &
b110100010001001 +
b1000011011 (
b11010011010 .
b101000100001110 -
b1001101100 '
b101101100 %
b101110110100 $
b100010001 ,
b100 0
b10 /
1"
#130000
0"
#135000
b10100100 !
b10100100 *
b10010000111 )
b110100100000 &
b101100010111001 +
b1010100111 (
b1001111001110 .
b110110101100 -
b10101100100 '
b111110001 %
b11001011000 $
b100000100 ,
b100 0
b10 /
1"
#140000
0"
#145000
b10001110 !
b10001110 *
b100000001011 )
b100001001001 &
b10001001111110 +
b1001011010 (
b1001100001011 .
b101011011101010 -
b1111010100 '
b1001100001 %
b110100100000 $
b10101001 ,
b100 0
b10 /
1"
#150000
0"
#155000
b100100 !
b100100 *
b11000101110 )
b111110000001 &
b110101010011110 +
b110101011 (
b101001101001 .
b101101111001100 -
b10000010000 '
b1100110011 %
b10111001100 $
b10011111 ,
b100 0
b10 /
1"
#160000
0"
#165000
b10101001 !
b10101001 *
b10110111011 )
b100011111111 &
b110011011010100 +
b11011001 (
b1010001010000 .
b101011111100100 -
b1011100100 '
b110101011 %
b100001010000 $
b11100110 ,
b100 0
b10 /
1"
#170000
0"
#175000
b10110000 !
b10110000 *
b1110111101 )
b100111111011 &
b110110100011010 +
b111 (
b111100111100 .
b1010010000010 -
b10101010000 '
b10001100 %
b100011000000 $
b10111100 ,
b100 0
b10 /
1"
#180000
0"
#185000
b10111110 !
b10111110 *
b10101010111 )
b100101001100 &
b10010001111010 +
b1011101101 (
b1101000100111 .
b10111111011010 -
b1101011100 '
b110000001 %
b100100010100 $
b11001000 ,
b100 0
b10 /
1"
#190000
0"
#195000
b101011 !
b101011 *
b11001001001 )
b101010010101 &
b100101011001001 +
b101100101 (
b11110011110 .
b1001110001000 -
b1011010000 '
b101101100 %
b11111000100 $
b11001011 ,
b100 0
b10 /
1"
#200000
0"
#205000
b1110011 !
b1110011 *
b10000110101 )
b100100110000 &
b1101111110001 +
b1000110111 (
b111011111011 .
b11101110010010 -
b10100010100 '
b1010001011 %
b10011010000 $
b101001 ,
b100 0
b10 /
1"
#210000
0"
#215000
b11101 !
b11101 *
b11101001011 )
b11101011011 &
b100101010110110 +
b101010000 (
b1110000101111 .
b10100100000100 -
b11101101100 '
b111111111 %
b11000100000 $
b11011110 ,
b100 0
b10 /
1"
#220000
0"
#225000
b1111000 !
b1111000 *
b100010111100 )
b100000011111 &
b100011000010001 +
b110001000 (
b100100100100 .
b10010000100010 -
b10110100000 '
b1110111 %
b10001111100 $
b10011001 ,
b100 0
b10 /
1"
#230000
0"
#235000
b1101010 !
b1101010 *
b11100101000 )
b10011110011 &
b10110111011111 +
b111101010 (
b111111111111 .
b100100001000100 -
b1111111100 '
b100101101 %
b10001100000 $
b10101010 ,
b100 0
b10 /
1"
#240000
0"
#245000
b1000011 !
b1000011 *
b10111100110 )
b10110001101 &
b101100011101101 +
b101010111 (
b100001100001 .
b100011101001010 -
b1110101100 '
b1000111110 %
b10101011100 $
b11110010 ,
b100 0
b10 /
1"
#250000
0"
#255000
b10011010 !
b10011010 *
b10100000011 )
b11110011010 &
b101000010011101 +
b111011100 (
b1001011001010 .
b11100110011110 -
b10001100000 '
b111100011 %
b10101000000 $
b1110111 ,
b100 0
b10 /
1"
#260000
0"
#265000
b10001000 !
b10001000 *
b11000111100 )
b11100100011 &
b100110011011111 +
b101011110 (
b1010000001111 .
b11010110110110 -
b11011100000 '
b111000000 %
b11000111100 $
b100100010 ,
b100 0
b10 /
1"
#270000
0"
#275000
b1111111 !
b1111111 *
b100000111110 )
b11111111100 &
b100101011100111 +
b1010100 (
b1100001100000 .
b101110011000110 -
b100001011100 '
b110100100 %
b1111110000 $
b11011001 ,
b100 0
b10 /
1"
#280000
0"
#285000
b1110101 !
b1110101 *
b100010110000 )
b10110010100 &
b111010111111111 +
b110001111 (
b1000001000000 .
b100101100110010 -
b10100101000 '
b110001000 %
b11010010000 $
b11001111 ,
b100 0
b10 /
1"
#290000
0"
#295000
b11001111 !
b11001111 *
b11010110111 )
b100000011000 &
b101110001000001 +
b11001011 (
b101110101110 .
b11110010001100 -
b10101010000 '
b1000110111 %
b1011011000 $
b10101100 ,
b100 0
b10 /
1"
#300000
0"
#305000
b10011010 !
b10011010 *
b11000011011 )
b10100001111 &
b100100011100110 +
b101111010 (
b1001001001000 .
b10100000001010 -
b1000011100 '
b11100111 %
b11100011100 $
b1011011 ,
b100 0
b10 /
1"
#310000
0"
#315000
b1111011 !
b1111011 *
b1110010110 )
b100000000011 &
b11101010101101 +
b100110100 (
b10100010100 .
b11010010111100 -
b10001100000 '
b1000110000 %
b11000111100 $
b11011011 ,
b100 0
b10 /
1"
#320000
0"
#325000
b1011110 !
b1011110 *
b10110010100 )
b100001101100 &
b11101010101011 +
b1101001 (
b101011101011 .
b10101100100 '
b10100001 %
b101011010100 $
b11100100 ,
b100 0
b10 /
1"
#330000
0"
#335000
b1011001 !
b1011001 *
b10111001101 )
b101101110101 &
b100000010001011 +
b111101010 (
b100100100100 .
b100001001101000 -
b1000001000 '
b1011010001 %
b1110011100 $
b1011010 ,
b100 0
b10 /
1"
#340000
0"
#345000
b1011110 !
b1011110 *
b1111110010 )
b11001101101 &
b100101111100110 +
b110010110 (
b1000011000010 .
b101100111011000 -
b10011011000 '
b101110011 %
b10010110100 $
b10010000 ,
b100 0
b10 /
1"
#350000
0"
#355000
b10000011 !
b10000011 *
b11001101110 )
b11000100111 &
b110101100101010 +
b101001001 (
b1000101000100 .
b101101111001100 -
b110010000 '
b110100100 %
b11001110100 $
b10101000 ,
b100 0
b10 /
1"
#360000
0"
#365000
b10111101 !
b10111101 *
b1011011001 )
b100000011000 &
b110110110111000 +
b10111101 (
b1100000011111 .
b11001111000010 -
b101000000 '
b1011011000 %
b100011011100 $
b10101001 ,
b100 0
b10 /
1"
#370000
0"
#375000
b11000101 !
b11000101 *
b111111101 )
b101110110100 &
b100110010001010 +
b111011100 (
b11110011110 .
b1101001011110 -
b100110001000 '
b10101000 %
b1110111000 $
b10100111 ,
b100 0
b10 /
1"
#380000
0"
#385000
b1111101 !
b1111101 *
b101101100100 )
b10001100000 &
b10001010100011 +
b1100010111 (
b100011100011 .
b11100110011110 -
b1111111100 '
b111001110 %
b110011101000 $
b10001100 ,
b100 0
b10 /
1"
#390000
0"
#395000
b100101 !
b100101 *
b11100010011 )
b111010110110 &
b100001100001101 +
b110011101 (
b1000101000100 .
b100000001110100 -
b1001000100 '
b111110001 %
b11101010100 $
b11001111 ,
b100 0
b10 /
1"
#400000
0"
#405000
b1011010 !
b1011010 *
b1111100001 )
b100101000101 &
b101001010000111 +
b111011100 (
b110001110001 .
b100110100100110 -
b100001001000 '
b101111010 %
b100001101100 $
b11011010 ,
b100 0
b10 /
1"
#410000
0"
#415000
b10001010 !
b10001010 *
b101000100100 )
b100111100110 &
b101101001110001 +
b1010110101 (
b1000101000100 .
b10011000010110 -
b1000110000 '
b1010010010 %
b11011001000 $
b11001111 ,
b100 0
b10 /
1"
#420000
0"
#425000
b10001100 !
b10001100 *
b10011100101 )
b100101011010 &
b11100000101001 +
b111011100 (
b1010000001111 .
b100100100111110 -
b10110100000 '
b110011101 %
b11000111100 $
b11011101 ,
b100 0
b10 /
1"
#430000
0"
#435000
b1010011 !
b1010011 *
b11101111100 )
b11111011001 &
b101111000101010 +
b11011001 (
b10011010011 .
b10000100110100 -
b111001100 '
b1011100110 %
b1010100000 $
b11000111 ,
b100 0
b10 /
1"
#440000
0"
#445000
b10011101 !
b10011101 *
b1010100101 )
b10110000110 &
b10011011001110 +
b111111111 (
b111101111101 .
b10101111110010 -
b100011101000 '
b10111101 %
b1110111000 $
b10011101 ,
b100 0
b10 /
1"
#450000
0"
#455000
b111101 !
b111101 *
b101011100111 )
b10001110101 &
b11110000001100 +
b10101111 (
b1110010110001 .
b110100101111000 -
b10111001000 '
b101001001 %
b1011110100 $
b10011111 ,
b100 0
b10 /
1"
#460000
0"
#465000
b1011001 !
b1011001 *
b11001110111 )
b10000111101 &
b1000011011001000 +
b111010101 (
b1001011001010 .
b11101110010010 -
b1110000100 '
b1100010111 %
b110001000 $
b1111100 ,
b100 0
b10 /
1"
#470000
0"
#475000
b11111000 !
b11111000 *
b10101011001 )
b10010011111 &
b100111011011000 +
b11010010 (
b1000111000110 .
b111001001000010 -
b10101100100 '
b10111101 %
b100001010000 $
b11010000 ,
b100 0
b10 /
1"
#480000
0"
#485000
b10001001 !
b10001001 *
b11000110110 )
b100100001101 &
b1000010011011000 +
b110101011 (
b1011000010111 .
b11010010111100 -
b1010000000 '
b11100000 %
b110011001100 $
b10110100 ,
b100 0
b10 /
1"
#490000
0"
#495000
b11101011 !
b11101011 *
b10000101011 )
b110110101100 &
b100101110000111 +
b1000010100 (
b110111110111 .
b10110111100110 -
b1100001100 '
b10111101 %
b100100010100 $
b100100111 ,
b100 0
b10 /
1"
#500000
0"
#505000
b1110011 !
b1110011 *
b10100100000 )
b100111010001 &
b11110100000100 +
b1001010011 (
b100100100100 .
b101110111000000 -
b10101111000 '
b110001000 %
b11100111000 $
b1010000 ,
b100 0
b10 /
1"
#510000
0"
#515000
b1011100 !
b1011100 *
b11111001011 )
b100011000000 &
b110011100110100 +
b111001110 (
b1001111001110 .
b11010010111100 -
b1111111100 '
b1001000101 %
b100111110100 $
b11000101 ,
b100 0
b10 /
1"
#520000
0"
#525000
b10101101 !
b10101101 *
b10111001010 )
b110000111001 &
b100100101001111 +
b101100101 (
b111110111110 .
b100111000100 -
b11001000000 '
b1011011000 %
b10011101100 $
b111111 ,
b100 0
b10 /
1"
#530000
0"
#535000
b1101110 !
b1101110 *
b11110100101 )
b11111000100 &
b1100111000001 +
b111010101 (
b101000101000 .
b111110100000 -
b11110010100 '
b111000111 %
b11000100 $
b11100011 ,
b100 0
b10 /
1"
#540000
0"
#545000
b10100 !
b10100 *
b100101101001 )
b1010001011 &
b1101010101011 +
b1010111010110 .
b11110010001100 -
b11000101100 '
b11100000 %
b100100110000 $
b10110101 ,
b100 0
b10 /
1"
#550000
0"
#555000
b11101 !
b11101 *
b100000000001 )
b101000010000 &
b101001100010111 +
b101000010 (
b100000100000 .
b10010000100010 -
b10110100000 '
b101010000 %
b11010010000 $
b10010011 ,
b100 0
b10 /
1"
#560000
0"
#565000
b10000010 !
b10000010 *
b11011100010 )
b11111100000 &
b10110011010101 +
b111001110 (
b1000111000110 .
b100110000101100 -
b11001111100 '
b111011100 %
b10111001100 $
b1010001 ,
b100 0
b10 /
1"
#570000
0"
#575000
b111100 !
b111100 *
b100001001010 )
b11110101000 &
b101111001000011 +
b110010110 (
b1100000011111 .
b110011110000100 -
b11101000100 '
b111111111 %
b1110111000 $
b11001001 ,
b100 0
b10 /
1"
#580000
0"
#585000
b10011100 !
b10011100 *
b100011011010 )
b10110110111 &
b1000000001101100 +
b1000000110 (
b1001000000111 .
b110111001011010 -
b100101100 '
b101101100 %
b11010010000 $
b10111001 ,
b100 0
b10 /
1"
#590000
0"
#595000
b11100011 !
b11100011 *
b1100110010 )
b11111111100 &
b1000000100011010 +
b101101100 (
b1001011001010 .
b10101111110010 -
b10100101000 '
b10110110 %
b11101110000 $
b10101100 ,
b100 0
b10 /
1"
#600000
0"
#605000
b11101011 !
b11101011 *
b11010010100 )
b100000100110 &
b11111101101000 +
b101010111 (
b101011101011 .
b100111000100000 -
b10111001000 '
b110101011 %
b10011101100 $
b10011011 ,
b100 0
b10 /
1"
#610000
0"
#615000
b1100001 !
b1100001 *
b11100011111 )
b11010010111 &
b101100110100110 +
b110100110100 .
b11110010001100 -
b1110000100 '
b101011110 %
b11000000100 $
b100100001 ,
b100 0
b10 /
1"
#620000
0"
#625000
b10010111 !
b10010111 *
b10011011011 )
b11101100010 &
b100101011100001 +
b101010000 (
b1001110001101 .
b101000100001110 -
b1011111000 '
b10111101 %
b100110100000 $
b10000011 ,
b100 0
b10 /
1"
#630000
0"
#635000
b1111101 !
b1111101 *
b10001001000 )
b101001011101 &
b110010100011110 +
b110001111 (
b100100100100 .
b101011111100100 -
b11001111100 '
b1000011011 %
b10010011000 $
b100100001 ,
b100 0
b10 /
1"
#640000
0"
#645000
b10101100 !
b10101100 *
b100000001011 )
b11010110011 &
b110001000101001 +
b1000110000 (
b11101011101 .
b1110001010010 -
b1110011000 '
b100001010 %
b10101011100 $
b1011010 ,
b100 0
b10 /
1"
#650000
0"
#655000
b10100110 !
b10100110 *
b10111001000 )
b11001100110 &
b10010000001001 +
b101010000 (
b111100111100 .
b11000111001110 -
b10101010000 '
b100110100 %
b10101111000 $
b10010000 ,
b100 0
b10 /
1"
#660000
0"
#665000
b101111 !
b101111 *
b11010100000 )
b11010101100 &
b100000110011010 +
b111011100 (
b1000011000010 .
b11001011001000 -
b11000000100 '
b111000000 %
b11000111100 $
b10110111 ,
b100 0
b10 /
1"
#670000
0"
#675000
b1101000 !
b1101000 *
b11111100000 )
b11111111100 &
b100010001000001 +
b101010111 (
b111000111000 .
b110010010010110 -
b1111111100 '
b10010011 %
b10100001000 $
b100001110 ,
b100 0
b10 /
1"
#680000
0"
#685000
b10101010011 )
b10110011011 &
b111001111011100 +
b1001010011 (
b1010011010010 .
b1100001101010 -
b10011000100 '
b101101100 %
b111111000 $
b11011011 ,
b100 0
b10 /
1"
#690000
0"
#695000
b11010001 !
b11010001 *
b11100010111 )
b1101100100 &
b10111000010111 +
b1101010110 (
b11010110110110 -
b11010100100 '
b1000111110 %
b10111101000 $
b11011111 ,
b100 0
b10 /
1"
#700000
0"
#705000
b1000111 !
b1000111 *
b100111111010 )
b100000100110 &
b100101101100111 +
b1010000100 (
b100000100000 .
b1010101111100 -
b1111000000 '
b1011111011 %
b10001000100 $
b100 0
b10 /
1"
#710000
0"
#715000
b1110010 !
b1110010 *
b11001000100 )
b11100111111 &
b1111001111011 +
b110101011 (
b1010110010101 .
b101101111001100 -
b1011100100 '
b101100101 %
b110100100 $
b100001010 ,
b100 0
b10 /
1"
#720000
0"
#725000
b100001 !
b100001 *
b10010001111 )
b1100001001 &
b111001001101011 +
b1000110111 (
b101000101000 .
b100001101100010 -
b1100001100 '
b1000000110 %
b11111000100 $
b11001001 ,
b100 0
b10 /
1"
#730000
0"
#735000
b11010101 !
b11010101 *
b10101000011 )
b100111001010 &
b100111001010011 +
b1011111011 (
b1001000000111 .
b1011001110110 -
b100001011100 '
b111000000 %
b1110011100 $
b11100100 ,
b100 0
b10 /
1"
#740000
0"
#745000
b1111110 !
b1111110 *
b101101010111 )
b10101011100 &
b10100101100001 +
b110101011 (
b111010111010 .
b1101001011110 -
b10101100100 '
b1001100001 %
b110100100 $
b10010010 ,
b100 0
b10 /
1"
#750000
0"
#755000
b110001 !
b110001 *
b11100001111 )
b10000000101 &
b10100110101010 +
b1100000011111 .
b10011100010000 -
b11110101000 '
b100011000 %
b100011000 $
b10110011 ,
b100 0
b10 /
1"
#760000
0"
#765000
b111101 !
b111101 *
b100101010011 )
b1000110000 &
b11111111100010 +
b1000110000 (
b111110111110 .
b100011001010000 -
b10111001000 '
b1010010010 %
b10110010100 $
b11011101 ,
b100 0
b10 /
1"
#770000
0"
#775000
b1101000 !
b1101000 *
b11111111000 )
b100000100110 &
b101011011101011 +
b110001000 (
b1010111010110 .
b101001100000010 -
b10101111000 '
b111111111 %
b10110110000 $
b11111101 ,
b100 0
b10 /
1"
#780000
0"
#785000
b10001101 !
b10001101 *
b11100000000 )
b11110101111 &
b110100111010101 +
b11100000 (
b1001111001110 .
b100000001110100 -
b11001000000 '
b1000110000 %
b110101110100 $
b10011111 ,
b100 0
b10 /
1"
#790000
0"
#795000
b10110110 !
b10110110 *
b11100100000 )
b111110100100 &
b101010011100001 +
b1000000110 (
b11101011101 .
b11100110011110 -
b100101110100 '
b110000001 %
b11011100100 $
b10010100 ,
b100 0
b10 /
1"
#800000
0"
#805000
b1111100 !
b1111100 *
b101101111010 )
b100001100101 &
b100000110001111 +
b110100100 (
b1011000010111 .
b11011010110000 -
b11101011000 '
b1010110101 %
b101011110000 $
b10101110 ,
b100 0
b10 /
1"
#810000
0"
#815000
b1011011 !
b1011011 *
b100011111100 )
b110110100101 &
b100110101110101 +
b1000110000 (
b1000101000100 .
b11001011001000 -
b10110110100 '
b10101111 %
b111111000 $
b10010001 ,
b100 0
b10 /
1"
#820000
0"
#825000
b1101101 !
b1101101 *
b11111100100 )
b1010100111 &
b100010010011101 +
b111010101 (
b1000001000000 .
b101111110110100 -
b10100010100 '
b111001110 %
b10010011000 $
b10110110 ,
b100 0
b10 /
1"
#830000
0"
#835000
b1110100 !
b1110100 *
b11011101001 )
b11001100110 &
b111000010101010 +
b1001100001 (
b111000111000 .
b100000001110100 -
b10001001100 '
b110001111 %
b10101011100 $
b10010001 ,
b100 0
b10 /
1"
#840000
0"
#845000
b11000110 !
b11000110 *
b11010101101 )
b11011101011 &
b100111100111101 +
b1011110011101 .
b11010110110110 -
b11001111100 '
b110111001 %
b10011010000 $
b100001011 ,
b100 0
b10 /
1"
#850000
0"
#855000
b10000011 !
b10000011 *
b100011011101 )
b11010001001 &
b100111001011110 +
b101101100 (
b1100001100000 .
b11100110011110 -
b1000001000 '
b1001101111 %
b100100110000 $
b100010001 ,
b100 0
b10 /
1"
#860000
0"
#865000
b1111101 !
b1111101 *
b1101110100 )
b101110011111 &
b101001100001111 +
b100011111 (
b111000111000 .
b101101011010010 -
b101010100 '
b1000110111 %
b100111011000 $
b10011001 ,
b100 0
b10 /
1"
#870000
0"
#875000
b10000111 !
b10000111 *
b1001110011 )
b110000001111 &
b110100110100011 +
b110110010 (
b110111110111 .
b11110010001100 -
b10011101100 '
b1000010100 %
b10011111 ,
b100 0
b10 /
1"
#880000
0"
#885000
b10110110 !
b10110110 *
b11010011110 )
b101111101100 &
b100101100100010 +
b1000101001 (
b100000100 .
b110001110011100 -
b1000011100 '
b101101100 %
b11110101000 $
b10010001 ,
b100 0
b10 /
1"
#890000
0"
#895000
b1110001 !
b1110001 *
b10001000101 )
b100100010100 &
b110010100110001 +
b111101010 (
b1011101011100 .
b100011101001010 -
b11110010100 '
b111111111 %
b11100011100 $
b11101000 ,
b100 0
b10 /
1"
#900000
0"
#905000
b10101111 !
b10101111 *
b100101111110 )
b100100011011 &
b101111110001110 +
b11001011 (
b10100010100 .
b10100111111110 -
b11001111100 '
b111100011 %
b100110100000 $
b10100001 ,
b100 0
b10 /
1"
#910000
0"
#915000
b10011001 !
b10011001 *
b11101000111 )
b101110000011 &
b10111110110011 +
b10101111 (
b1011000010111 .
b100100001000100 -
b1001011000 '
b111101010 %
b101100101000 $
b100010100 ,
b100 0
b10 /
1"
#920000
0"
#925000
b111001 !
b111001 *
b1100000111 )
b110100010010 &
b101111101101111 +
b111110001 (
b10111010111 .
b11000011010100 -
b11111010000 '
b111001110 %
b1000010100 $
b10111010 ,
b100 0
b10 /
1"
#930000
0"
#935000
b10011110 !
b10011110 *
b100111000001 )
b1111100010 &
b11011101100101 +
b111101010 (
b110110110110 .
b101000000010100 -
b11010010000 '
b10011010 %
b11010101100 $
b10011100 ,
b100 0
b10 /
1"
#940000
0"
#945000
b1010011 !
b1010011 *
b100001111010 )
b11101000110 &
b101111001100110 +
b1001011010 (
b1000110000101 .
b1111001000110 -
b10110001100 '
b110011101 %
b100011011100 $
b11100001 ,
b100 0
b10 /
1"
#950000
0"
#955000
b10011101 !
b10011101 *
b11111100110 )
b101001111001 &
b11000010101100 +
b11001011 (
b101000101000 .
b11101110010010 -
b100001110000 '
b110001000 %
b11100011100 $
b10101000 ,
b100 0
b10 /
1"
#960000
0"
#965000
b111100 !
b111100 *
b100100111011 )
b100010100100 &
b100011001100010 +
b1010010010 (
b100101100101 .
b10100100000100 -
b10100111100 '
b111111111 %
b10111001100 $
b11010100 ,
b100 0
b10 /
1"
#970000
0"
#975000
b1101001 !
b1101001 *
b11111001110 )
b11111001011 &
b11001100111101 +
b111100011 (
b1000010000001 .
b101011011101010 -
b11001010100 '
b101000010 %
b100101101000 $
b11111011 ,
b100 0
b10 /
1"
#980000
0"
#985000
b1000111 !
b1000111 *
b100000110111 )
b101010101010 &
b110100001100110 +
b1000000110 (
b100110100110 .
b11110010001100 -
b10011000100 '
b1010111100 %
b110000001000 $
b10101000 ,
b100 0
b10 /
1"
#990000
0"
#995000
b10101011 !
b10101011 *
b11011001010 )
b111011000100 &
b100011011011010 +
b111000000 (
b1000100000011 .
b111110100000 -
b10001001100 '
b111101010 %
b100111011000 $
b11100010 ,
b100 0
b10 /
1"
#1000000
0"
#1005000
b1100010 !
b1100010 *
b11000001100 )
b101111000010 &
b10000110000101 +
b101001001 (
b110000110000 .
b101101111001100 -
b10110110100 '
b1110111 %
b10101000000 $
b10100010 ,
b100 0
b10 /
1"
#1010000
0"
#1015000
b11111 !
b11111 *
b11011111101 )
b10110110111 &
b110100010011110 +
b101011110 (
b1010001010000 .
b10111011100000 -
b10101010000 '
b1000111110 %
b11100111000 $
b1111111 ,
b100 0
b10 /
1"
#1020000
0"
#1025000
b10110111 !
b10110111 *
b11010101110 )
b100101110110 &
b100001110101111 +
b101001001 (
b1000001000000 .
b100111000100000 -
b10100010100 '
b1000110111 %
b10110110000 $
b10110001 ,
b100 0
b10 /
1"
#1030000
0"
#1035000
b1100111 !
b1100111 *
b11001011101 )
b11111100111 &
b101111100010001 +
b110110010 (
b100010100010 .
b100011101001010 -
b10101010000 '
b100011111 %
b11011001000 $
b1100110 ,
b100 0
b10 /
1"
#1040000
0"
#1045000
b10100001 !
b10100001 *
b11100000010 )
b101000001010010 +
b101000010 (
b1110001110000 .
b110001110011100 -
b1010101000 '
b110101011 %
b10001100000 $
b10010001 ,
b100 0
b10 /
1"
#1050000
0"
#1055000
b10000010 !
b10000010 *
b1111101010 )
b11000001011 &
b1000000010011101 +
b1010011001 (
b101001101001 .
b110000110101000 -
b10100111100 '
b11000100 %
b101000101100 $
b1100101 ,
b100 0
b10 /
1"
#1060000
0"
#1065000
b11101101 !
b11101101 *
b11111010101 )
b101011110000 &
b110110001110110 +
b11001011 (
b1100010100001 .
b1100001101010 -
b10101010000 '
b100010001 %
b111111000 $
b11001000 ,
b100 0
b10 /
1"
#1070000
0"
#1075000
b10110011 !
b10110011 *
b11000011011 )
b1100001001 &
b11000111010011 +
b10111101 (
b11001011001 .
b101101111001100 -
b100001110000 '
b111000000 %
b10101000000 $
b11000101 ,
b100 0
b10 /
1"
#1080000
0"
#1085000
b1010001 !
b1010001 *
b100100101101 )
b11100000000 &
b110001011101010 +
b100 0
b10 /
1"
#1090000
0"
#1095000
b10100101 !
b10100101 *
b100 0
b10 /
1"
#1100000
0"
#1105000
b100 0
b10 /
1"
