video_enhancement/b. code/test/kernel_1.vcd
$date
	Fri Nov 10 16:46:56 2023
$end
$version
	Icarus Verilog
$end
$timescale
	1ps
$end
$scope module kernel_1_tb $end
$var wire 9 ! pixel_out [8:0] $end
$var reg 1 " clk_in $end
$var reg 1 # rst_in $end
$scope module k1_tm $end
$var wire 1 " clk_in $end
$var wire 6 $ p1 [5:0] $end
$var wire 6 % p2 [5:0] $end
$var wire 6 & p3 [5:0] $end
$var wire 6 ' p4 [5:0] $end
$var reg 13 ( m1 [12:0] $end
$var reg 13 ) m2 [12:0] $end
$var reg 13 * m3 [12:0] $end
$var reg 13 + m4 [12:0] $end
$var reg 14 , neg [13:0] $end
$var reg 9 - pixel_out [8:0] $end
$var reg 14 . pos [13:0] $end
$upscope $end
$upscope $end
$enddefinitions $end
$comment Show the parameter values. $end
$dumpall
$end
#0
$dumpvars
bx .
bx -
bx ,
bx +
bx *
bx )
bx (
bx '
bx &
bx %
bx $
0#
0"
bx !
$end
#5000
1"
#10000
0"
1#
#15000
1"
#20000
0"
b0 '
b0 &
b0 %
b0 $
0#
#25000
b0 +
b0 *
b0 )
b0 (
1"
#30000
0"
b100000 '
b100000 &
b100000 %
b100000 $
#35000
b0 ,
b0 .
b1100000 +
b1110100000 *
b110111100000 )
b100100000 (
1"
#40000
0"
b111111 '
b111111 &
b111111 %
b111111 $
#45000
b0 !
b0 -
b110000000 ,
b1000110000000 .
b10111101 +
b11100100011 *
b1101101010001 )
b1000110111 (
1"
#50000
0"
b0 '
b0 $
#55000
b10000000 !
b10000000 -
b1011110100 ,
b10001001110100 .
b0 +
b0 (
1"
#60000
0"
b111111 '
b0 &
b0 %
b111111 $
#65000
b11111100 !
b11111100 -
b0 ,
b10111101 +
b0 *
b0 )
b1000110111 (
1"
#70000
0"
b101111 '
b11 &
b100000 %
b10010 $
#75000
b100010011 !
b100010011 -
b1011110100 ,
b0 .
b10001101 +
b1010111 *
b110111100000 )
b10100010 (
1"
#80000
0"
b111011 '
b111101 &
b11010 %
b110000 $
#85000
b111101000 !
b111101000 -
b100101111 ,
b111000110111 .
b10110001 +
b11011101001 *
b101101000110 )
b110110000 (
1"
#90000
0"
b111001 '
b100011 &
b10010 %
b11001 $
#95000
b1101000 !
b1101000 -
b1001100001 ,
b1001000101111 .
b10101011 +
b1111110111 *
b11111001110 )
b11100001 (
1"
#100000
0"
b10001 '
b11 &
b111011 %
b101000 $
#105000
b1111110 !
b1111110 -
b110001100 ,
b101111000101 .
b110011 +
b1010111 *
b1100110010101 )
b101101000 (
1"
#110000
0"
b0 '
b101000 &
b1110 %
b101101 $
#115000
b1010001 !
b1010001 -
b110011011 ,
b1100111101100 .
b0 +
b10010001000 *
b11000010010 )
b110010101 (
1"
#120000
0"
b100 '
b1011 &
b101111 %
b111000 $
#125000
b11000010 !
b11000010 -
b110010101 ,
b101010011010 .
b1100 +
b100111111 *
b1010001100001 )
b111111000 (
1"
#130000
0"
b110101 '
b11000 &
b1 %
b100110 $
#135000
b1001000 !
b1001000 -
b1000000100 ,
b1010110100000 .
b10011111 +
b1010111000 *
b1101111 )
b101010110 (
1"
#140000
0"
b11110 '
b110010 &
b111110 %
b1010 $
#145000
b10011100 !
b10011100 -
b111110101 ,
b1100100111 .
b1011010 +
b10110101010 *
b1101011100010 )
b1011010 (
1"
#150000
0"
b111001 '
b11001 &
b110111 %
b100100 $
#155000
b1001 !
b1001 -
b10110100 ,
b10000010001100 .
b10101011 +
b1011010101 *
b1011111011001 )
b101000100 (
1"
#160000
0"
b1000 '
b111010 &
b111 %
b11011 $
#165000
b11111110 !
b11111110 -
b111101111 ,
b1101010101110 .
b11000 +
b11010010010 *
b1100001001 )
b11110011 (
1"
#170000
0"
b100011 '
b10100 &
b110010 %
b11000 $
#175000
b11000101 !
b11000101 -
b100001011 ,
b100110011011 .
b1101001 +
b1001000100 *
b1010110101110 )
b11011000 (
1"
#180000
0"
b11000 '
b1111 &
b100011 %
b110101 $
#185000
b1000100 !
b1000100 -
b101000001 ,
b1011111110010 .
b1001000 +
b110110011 *
b111100101101 )
b111011101 (
1"
#190000
0"
b11101 '
b101110 &
b101010 %
b110110 $
#195000
b10110101 !
b10110101 -
b1000100101 ,
b1000011100000 .
b1010111 +
b10100110110 *
b1001000110110 )
b111100110 (
1"
#200000
0"
b11010 '
b101010 &
b101101 %
b100101 $
#205000
b1110101 !
b1110101 -
b1000111101 ,
b1011101101100 .
b1001110 +
b10011000010 *
b1001110000011 )
b101001101 (
1"
#210000
0"
b1101 '
b110011 &
b1100 %
b111110 $
#215000
b10101001 !
b10101001 -
b110011011 ,
b1100001000101 .
b100111 +
b10111000111 *
b10100110100 )
b1000101110 (
1"
#220000
0"
b10000 '
b111100 &
b111010 %
b1000 $
#225000
b10110101 !
b10110101 -
b1001010101 ,
b101011111011 .
b110000 +
b11011001100 *
b1100100100110 )
b1001000 (
1"
#230000
0"
b101111 '
b110111 &
b100111 %
b110110 $
#235000
b1000101 !
b1000101 -
b1111000 ,
b1111111110010 .
b10001101 +
b11000111011 *
b1000011101001 )
b111100110 (
1"
#240000
0"
b101000 '
b1100 &
b110001 %
b111100 $
#245000
b11111011 !
b11111011 -
b1001110011 ,
b1011100100100 .
b1111000 +
b101011100 *
b1010100111111 )
b1000011100 (
1"
#250000
0"
b11000 '
b110000 &
b1111 %
b110 $
#255000
b10100101 !
b10100101 -
b1010010100 ,
b1011010011011 .
b1001000 +
b10101110000 *
b11010000001 )
b110110 (
1"
#260000
0"
b100 '
b10 &
b1101 %
#265000
b10100000 !
b10100000 -
b1111110 ,
b101111110001 .
b1100 +
b111010 *
b10110100011 )
1"
#270000
0"
b10 '
b110 &
b111110 %
b101000 $
#275000
b1011011 !
b1011011 -
b1000010 ,
b10111011101 .
b110 +
b10101110 *
b1101011100010 )
b101101000 (
1"
#280000
0"
b111001 '
b100100 &
b100111 %
b1011 $
#285000
b101100 !
b101100 -
b101101110 ,
b1101110010000 .
b10101011 +
b10000010100 *
b1000011101001 )
b1100011 (
1"
#290000
0"
b111010 '
b10111 &
b110011 %
b111011 $
#295000
b11010001 !
b11010001 -
b100001110 ,
b1010011111101 .
b10101110 +
b1010011011 *
b1011000011101 )
b1000010011 (
1"
#300000
0"
b10011 '
b1010 &
b11110 %
b101000 $
#305000
b10011111 !
b10011111 -
b1011000001 ,
b1100010111000 .
b111001 +
b100100010 *
b110100000010 )
b101101000 (
1"
#310000
0"
b1001 '
b101100 &
b100001 %
b100011 $
#315000
b10101111 !
b10101111 -
b110100001 ,
b111000100100 .
b11011 +
b10011111100 *
b111001001111 )
b100111011 (
1"
#320000
0"
b10110 '
b11100 &
b10111 %
b101100 $
#325000
b1100100 !
b1100100 -
b101010110 ,
b1001101001011 .
b1000010 +
b1100101100 *
b100111111001 )
b110001100 (
1"
#330000
0"
b110100 '
b1011 &
b110100 %
b100 $
#335000
b10001111 !
b10001111 -
b111001110 ,
b110100100101 .
b10011100 +
b100111111 *
b1011010001100 )
b100100 (
1"
#340000
0"
b101011 '
b10111 &
b101101 %
b110000 $
#345000
b1011010 !
b1011010 -
b11000000 ,
b1011111001011 .
b10000001 +
b1010011011 *
b1001110000011 )
b110110000 (
1"
#350000
0"
b11111 '
b111001 &
b100110 %
b101111 $
#355000
b10111000 !
b10111000 -
b1000110001 ,
b1011000011110 .
b1011101 +
b11001110101 *
b1000001111010 )
b110100111 (
1"
#360000
0"
b10011 '
b110100 &
b101001 %
b10110 $
#365000
b10011111 !
b10011111 -
b1000000100 ,
b1011011101111 .
b111001 +
b10111100100 *
b1000111000111 )
b11000110 (
1"
#370000
0"
b11110 '
b110110 &
b110100 %
b11111 $
#375000
b10100111 !
b10100111 -
b11111111 ,
b1011110101011 .
b1011010 +
b11000011110 *
b1011010001100 )
b100010111 (
1"
#380000
0"
b11011 '
b100101 &
b100110 %
b111000 $
#385000
b10110101 !
b10110101 -
b101110001 ,
b1110010101010 .
b1010001 +
b10000110001 *
b1000001111010 )
b111111000 (
1"
#390000
0"
b101101 '
b100011 &
b100 %
b1 $
#395000
b11011001 !
b11011001 -
b1001001001 ,
b1010010101011 .
b10000111 +
b1111110111 *
b110111100 )
b1001 (
1"
#400000
0"
b10010 '
b100 &
b1 %
b101000 $
#405000
b10010011 !
b10010011 -
b10010000 ,
b10110110011 .
b110110 +
b1110100 *
b1101111 )
b101101000 (
1"
#410000
0"
b101001 '
b110111 &
b1001 %
b111000 $
#415000
b101001 !
b101001 -
b110011110 ,
b11100011 .
b1111011 +
b11000111011 *
b1111100111 )
b111111000 (
1"
#420000
0"
b1011 '
b110 &
b11111 %
b11100 $
#425000
b111111010 !
b111111010 -
b1001110011 ,
b101000100010 .
b100001 +
b10101110 *
b110101110001 )
b11111100 (
1"
#430000
0"
b100000 '
b110111 &
b111000 %
b101 $
#435000
b111101 !
b111101 -
b100011101 ,
b111000011111 .
b1100000 +
b11000111011 *
b1100001001000 )
b101101 (
1"
#440000
0"
b1010 '
b11001 &
b111011 %
b1 $
#445000
b1101000 !
b1101000 -
b10001101 ,
b1111010000011 .
b11110 +
b1011010101 *
b1100110010101 )
b1001 (
1"
#450000
0"
b110111 '
b100101 &
b110011 %
b100101 $
#455000
b11101111 !
b11101111 -
b100111 ,
b1110001101010 .
b10100101 +
b10000110001 *
b1011000011101 )
b101001101 (
1"
#460000
0"
b100111 '
b1 &
b11100 %
b110011 $
#465000
b11100010 !
b11100010 -
b111110010 ,
b1101001001110 .
b1110101 +
b11101 *
b110000100100 )
b111001011 (
1"
#470000
0"
b111 '
b111010 &
b1101 %
b11101 $
#475000
b11000010 !
b11000010 -
b1001000000 ,
b110001000001 .
b10101 +
b11010010010 *
b10110100011 )
b100000101 (
1"
#480000
0"
b100101 '
b100100 &
b100011 %
b10 $
#485000
b1010000 !
b1010000 -
b100011010 ,
b110000110101 .
b1101111 +
b10000010100 *
b111100101101 )
b10010 (
1"
#490000
0"
b111100 '
b100010 &
b101000 %
b101001 $
#495000
b1011000 !
b1011000 -
b10000001 ,
b1001101000001 .
b10110100 +
b1111011010 *
b1000101011000 )
b101110001 (
1"
#500000
0"
b101011 '
b101011 &
b111001 %
b10000 $
#505000
b10010110 !
b10010110 -
b1000100101 ,
b1010100110010 .
b10000001 +
b10011011111 *
b1100010110111 )
b10010000 (
1"
#510000
0"
b111 '
b111000 &
b10110 %
b11100 $
#515000
b10011000 !
b10011000 -
b100010001 ,
b1110110010110 .
b10101 +
b11001011000 *
b100110001010 )
b11111100 (
1"
#520000
0"
b111011 '
b1 &
b10101 %
b10101 $
#525000
b11100100 !
b11100100 -
b111111100010 .
b10110001 +
b11101 *
b100100011011 )
b10111101 (
1"
#530000
0"
b11010 '
b10111 &
b11001 %
b11011 $
#535000
b1110110 !
b1110110 -
b101101110 ,
b100100111000 .
b1001110 +
b1010011011 *
b101011010111 )
b11110011 (
1"
#540000
0"
b100000 '
b100000 &
b10001 %
b100010 $
#545000
b111110 !
b111110 -
b101000001 ,
b110101110010 .
b1100000 +
b1110100000 *
b11101011111 )
b100110010 (
1"
#550000
0"
b110100 '
b101 &
b1110 %
b110111 $
#555000
b1100001 !
b1100001 -
b110010010 ,
b101011111111 .
b10011100 +
b10010001 *
b11000010010 )
b111101111 (
1"
#560000
0"
b101010 '
b100000 &
b10110 %
b110110 $
#565000
b1001011 !
b1001011 -
b1010001011 ,
b11010100011 .
b1111110 +
b1110100000 *
b100110001010 )
b111100110 (
1"
#570000
0"
b110110 '
b110101 &
b100 %
b11001 $
#575000
b100000 !
b100000 -
b1001100100 ,
b110100101010 .
b10100010 +
b11000000001 *
b110111100 )
b11100001 (
1"
#580000
0"
b1 '
b100110 &
b11101 %
b101000 $
#585000
b1010110 !
b1010110 -
b110000011 ,
b11110111101 .
b11 +
b10001001110 *
b110010010011 )
b101101000 (
1"
#590000
0"
b11010 '
b101010 &
b100001 %
b110000 $
#595000
b110001 !
b110001 -
b101101011 ,
b1000011100001 .
b1001110 +
b10011000010 *
b111001001111 )
b110110000 (
1"
#600000
0"
b10 '
b101101 &
b111001 %
b111001 $
#605000
b1111011 !
b1111011 -
b111111110 ,
b1001100010001 .
b110 +
b10100011001 *
b1100010110111 )
b1000000001 (
1"
#610000
0"
b10111 '
b1 &
b100011 %
b110001 $
#615000
b10001000 !
b10001000 -
b1000000111 ,
b1110111010000 .
b1000101 +
b11101 *
b111100101101 )
b110111001 (
1"
#620000
0"
b1111 '
b110000 &
b10001 %
b111001 $
#625000
b11011110 !
b11011110 -
b111111110 ,
b111101001010 .
b101101 +
b10101110000 *
b11101011111 )
b1000000001 (
1"
#630000
0"
b101100 '
b101010 &
b11100 %
b10001 $
#635000
b1101010 !
b1101010 -
b1000101110 ,
b110011001111 .
b10000100 +
b10011000010 *
b110000100100 )
b10011001 (
1"
#640000
0"
b10010 '
b111000 &
b100011 %
b101000 $
#645000
b1010101 !
b1010101 -
b100011101 ,
b1000011100110 .
b110110 +
b11001011000 *
b111100101101 )
b101101000 (
1"
#650000
0"
b111100 '
b11011 &
b110 %
b11010 $
#655000
b1111110 !
b1111110 -
b110011110 ,
b1010110000101 .
b10110100 +
b1100001111 *
b1010011010 )
b11101010 (
1"
#660000
0"
b10110 '
b110101 &
b1011 %
b11001 $
#665000
b10011111 !
b10011111 -
b10110101001 .
b1000010 +
b11000000001 *
b10011000101 )
b11100001 (
1"
#670000
0"
b100110 '
b1010 &
b111100 $
#675000
b100000 !
b100000 -
b100100011 ,
b101011000110 .
b1110010 +
b100100010 *
b1000011100 (
1"
#680000
0"
b11001 '
b11000 &
b11110 %
b1011 $
#685000
b1001101 !
b1001101 -
b1010001110 ,
b10111100111 .
b1001011 +
b1010111000 *
b110100000010 )
b1100011 (
1"
#690000
0"
b1101 '
b101001 &
b10000 %
b111010 $
#695000
b11010 !
b11010 -
b10101110 ,
b111110111010 .
b100111 +
b10010100101 *
b11011110000 )
b1000001010 (
1"
#700000
0"
b1001 '
b101000 &
b10100 %
b1110 $
#705000
b1111000 !
b1111000 -
b1000110001 ,
b101110010101 .
b11011 +
b10010001000 *
b100010101100 )
b1111110 (
1"
#710000
0"
b10 '
b11111 &
b11010 %
b11101 $
#715000
b1001011 !
b1001011 -
b10011001 ,
b110100110100 .
b110 +
b1110000011 *
b101101000110 )
b100000101 (
1"
#720000
0"
b110010 '
b110100 &
b110 %
b11 $
#725000
b1100100 !
b1100100 -
b100001011 ,
b111011001001 .
b10010110 +
b10111100100 *
b1010011010 )
b11011 (
1"
#730000
0"
b100101 '
b101111 &
b100010 %
b110100 $
#735000
b1101101 !
b1101101 -
b10110001 ,
b100001111110 .
b1101111 +
b10101010011 *
b111010111110 )
b111010100 (
1"
#740000
0"
b110000 '
b100110 &
b110010 %
b10000 $
#745000
b111110 !
b111110 -
b1001000011 ,
b1010000010001 .
b10010000 +
b10001001110 *
b1010110101110 )
b10010000 (
1"
#750000
0"
b1010 '
b11 &
b111000 %
b100011 $
#755000
b10001110 !
b10001110 -
b100100000 ,
b1100111111100 .
b11110 +
b1010111 *
b1100001001000 )
b100111011 (
1"
#760000
0"
b11100 '
b10101 &
b101111 %
b101111 $
#765000
b11000110 !
b11000110 -
b101011001 ,
b1100010011111 .
b1010100 +
b1001100001 *
b1010001100001 )
b110100111 (
1"
#770000
0"
b100101 '
b110111 &
b11100 %
b111 $
#775000
b10111010 !
b10111010 -
b111111011 ,
b1011011000010 .
b1101111 +
b11000111011 *
b110000100100 )
b111111 (
1"
#780000
0"
b11111 '
b11010 &
b111101 %
b101001 $
#785000
b10100110 !
b10100110 -
b10101110 ,
b1001001011111 .
b1011101 +
b1011110010 *
b1101001110011 )
b101110001 (
1"
#790000
0"
b100101 '
b100111 &
b1111 %
b111000 $
#795000
b10001101 !
b10001101 -
b111001110 ,
b1110101100101 .
b1101111 +
b10001101011 *
b11010000001 )
b111111000 (
1"
#800000
0"
b111001 '
b110010 &
b101 %
b1110 $
#805000
b11011100 !
b11011100 -
b1001100111 ,
b101011101100 .
b10101011 +
b10110101010 *
b1000101011 )
b1111110 (
1"
#810000
0"
b1111 '
b101 &
b110110 %
b101001 $
#815000
b1000100 !
b1000100 -
b100101001 ,
b11111010101 .
b101101 +
b10010001 *
b1011101101010 )
b101110001 (
1"
#820000
0"
b111001 '
b100101 &
b110010 %
b111 $
#825000
b110101 !
b110101 -
b110011110 ,
b1011111111011 .
b10101011 +
b10000110001 *
b1010110101110 )
b111111 (
1"
#830000
0"
b1 '
b11011 &
b100000 %
b10000 $
#835000
b10110010 !
b10110010 -
b11101010 ,
b1100111011111 .
b11 +
b1100001111 *
b110111100000 )
b10010000 (
1"
#840000
0"
b101010 '
b10111 &
b110010 %
b10001 $
#845000
b11000111 !
b11000111 -
b10010011 ,
b1000011101111 .
b1111110 +
b1010011011 *
b1010110101110 )
b10011001 (
1"
#850000
0"
b11001 '
b10010 &
b10111 %
b111010 $
#855000
b10000010 !
b10000010 -
b100010111 ,
b1100001001001 .
b1001011 +
b1000001010 *
b100111111001 )
b1000001010 (
1"
#860000
0"
b11101 '
b110010 &
b101 %
b111001 $
#865000
b10111001 !
b10111001 -
b1001010101 ,
b110000000011 .
b1010111 +
b10110101010 *
b1000101011 )
b1000000001 (
1"
#870000
0"
b111100 '
b110001 &
b10101 %
b101 $
#875000
b1001101 !
b1001101 -
b1001011000 ,
b11111010101 .
b10110100 +
b10110001101 *
b100100011011 )
b101101 (
1"
#880000
0"
b1000 '
b1010 &
b10110 %
b100001 $
#885000
b101011 !
b101011 -
b11100001 ,
b111010101000 .
b11000 +
b100100010 *
b100110001010 )
b100101001 (
1"
#890000
0"
b11110 '
b1000 &
b110111 %
b11010 $
#895000
b1101110 !
b1101110 -
b101000001 ,
b101010101100 .
b1011010 +
b11101000 *
b1011111011001 )
b11101010 (
1"
#900000
0"
b101101 '
b11110 &
b101011 %
b100010 $
#905000
b1001011 !
b1001011 -
b101000100 ,
b1100011000001 .
b10000111 +
b1101100110 *
b1001010100101 )
b100110010 (
1"
#910000
0"
b1110 '
b1010 %
b10010 $
#915000
b10111011 !
b10111011 -
b110111001 ,
b1011000001011 .
b101010 +
b10001010110 )
b10100010 (
1"
#920000
0"
b100011 '
b10000 &
b10110 %
b111101 $
#925000
b10100010 !
b10100010 -
b11001100 ,
b11110111100 .
b1101001 +
b111010000 *
b100110001010 )
b1000100101 (
1"
#930000
0"
b111100 '
b1 &
b101110 %
b110110 $
#935000
b110111 !
b110111 -
b1010001110 ,
b101101011010 .
b10110100 +
b11101 *
b1001111110010 )
b111100110 (
1"
#940000
0"
b1001 '
b110 &
b110 %
b1010 $
#945000
b1000110 !
b1000110 -
b1010011010 ,
b1010000001111 .
b11011 +
b10101110 *
b1010011010 )
b1011010 (
1"
#950000
0"
b110000 '
b111011 &
b10110 %
b11100 $
#955000
b10001011 !
b10001011 -
b1110101 ,
b1101001000 .
b10010000 +
b11010101111 *
b100110001010 )
b11111100 (
1"
#960000
0"
b11001 '
b100011 &
b110110 %
b11101 $
#965000
b10110 !
b10110 -
b110001100 ,
b1000000111001 .
b1001011 +
b1111110111 *
b1011101101010 )
b100000101 (
1"
#970000
0"
b101110 '
b1010 &
b10 %
b10101 $
#975000
b1110101 !
b1110101 -
b101010000 ,
b1101101100001 .
b10001010 +
b100100010 *
b11011110 )
b10111101 (
1"
#980000
0"
b111000 '
b110011 &
b11000 %
b101101 $
#985000
b11010000 !
b11010000 -
b101000111 ,
b1000000000 .
b10101000 +
b10111000111 *
b101001101000 )
b110010101 (
1"
#990000
0"
b100010 '
b1011 &
b1111 %
b11100 $
#995000
b101 !
b101 -
b1000111101 ,
b1000000101111 .
b1100110 +
b100111111 *
b11010000001 )
b11111100 (
1"
#1000000
0"
b111000 '
b1 &
b100011 %
b100110 $
#1005000
b1101111 !
b1101111 -
b101100010 ,
b11111000000 .
b10101000 +
b11101 *
b111100101101 )
b101010110 (
1"
#1010000
0"
b111010 '
b111100 &
b101101 %
b111110 $
#1015000
b110010 !
b110010 -
b111111110 ,
b111101001010 .
b10101110 +
b11011001100 *
b1001110000011 )
b1000101110 (
1"
#1020000
0"
b10 '
b10110 &
b101101 $
#1025000
b1101010 !
b1101010 -
b1011011100 ,
b1101001001111 .
b110 +
b1001111110 *
b110010101 (
1"
#1030000
0"
b110 '
b1011 &
b110 %
b110110 $
#1035000
b10111011 !
b10111011 -
b110011011 ,
b1011000000001 .
b10010 +
b100111111 *
b1010011010 )
b111100110 (
1"
#1040000
0"
b111001 '
b10100 &
b11011 %
b110010 $
#1045000
b10100011 !
b10100011 -
b111111000 ,
b1111011001 .
b10101011 +
b1001000100 *
b101110110101 )
b111000010 (
1"
#1050000
0"
b110101 '
b1101 &
b1100 %
b111011 $
#1055000
b1111 !
b1111 -
b1001101101 ,
b110111111001 .
b10011111 +
b101111001 *
b10100110100 )
b1000010011 (
1"
#1060000
0"
b11 '
b1011 &
b11101 %
b111101 $
#1065000
b1011100 !
b1011100 -
b1010110010 ,
b11010101101 .
b1001 +
b100111111 *
b110010010011 )
b1000100101 (
1"
#1070000
0"
#1075000
b11111 !
b11111 -
b1000101110 ,
b110111010010 .
1"
#1080000
0"
#1085000
b1011101 !
b1011101 -
1"
