video_enhancement/b. code/test/kernel_3.vcd
$date
	Fri Nov 10 16:47:44 2023
$end
$version
	Icarus Verilog
$end
$timescale
	1ps
$end
$scope module kernel_3_tb $end
$var wire 9 ! pixel_out [8:0] $end
$var reg 1 " clk_in $end
$var reg 1 # rst_in $end
$scope module uut $end
$var wire 1 " clk_in $end
$var reg 10 $ m00 [9:0] $end
$var reg 15 % m01 [14:0] $end
$var reg 11 & m02_20_pipe1 [10:0] $end
$var reg 11 ' m02_20_pipe2 [10:0] $end
$var reg 15 ( m10 [14:0] $end
$var reg 15 ) m11 [14:0] $end
$var reg 15 * m12 [14:0] $end
$var reg 10 + m13 [9:0] $end
$var reg 15 , m21 [14:0] $end
$var reg 15 - m22 [14:0] $end
$var reg 10 . m23 [9:0] $end
$var reg 10 / m31 [9:0] $end
$var reg 10 0 m32 [9:0] $end
$var reg 13 1 neg_01_10_13 [12:0] $end
$var reg 12 2 neg_23_32_31 [11:0] $end
$var reg 15 3 neg_all [14:0] $end
$var reg 9 4 pixel_out [8:0] $end
$var reg 15 5 pos_00_12_21 [14:0] $end
$var reg 16 6 pos_11_22 [15:0] $end
$var reg 16 7 pos_all [15:0] $end
$upscope $end
$upscope $end
$enddefinitions $end
$comment Show the parameter values. $end
$dumpall
$end
#0
$dumpvars
bx 7
bx 6
bx 5
bx 4
bx 3
bx 2
bx 1
bx 0
bx /
bx .
bx -
bx ,
bx +
bx *
bx )
bx (
bx '
bx &
bx %
bx $
0#
0"
bx !
$end
#5000
bx000 &
1"
#10000
0"
1#
#15000
bx000 '
1"
#20000
0"
0#
#25000
b0 0
b0 /
b0 .
b0 -
b0 ,
b0 +
b0 *
b0 )
b0 (
b0 &
b0 %
b0 $
1"
#30000
0"
#35000
b0 '
b0 6
b0 5
b0 2
b0 1
b1100000 0
b101000000 /
b1100000 .
b1101000000 -
b110010100000 ,
b101000000 +
b110010100000 *
b11000000100000 )
b1111100000 (
b1000000000 &
b1111100000 %
b1100000 $
1"
#40000
0"
#45000
b0 3
b0 7
b1000000000 '
b11001101100000 6
b1100110100000 5
b1000000000 2
b100100000000 1
b10111101 0
b1001110110 /
b10111101 .
b11001100110 -
b1100011011011 ,
b1001110110 +
b1100011011011 *
b101111010111111 )
b11110100001 (
b1111110000 &
b11110100001 %
b10111101 $
1"
#50000
0"
#55000
b0 !
b0 4
b110100000000 3
b100110100000000 7
b1111110000 '
b110010100100101 6
b11001001110011 5
b1111110000 2
b1000110111000 1
b0 0
b0 /
b0 .
b0 +
b0 (
b0 &
b0 %
1"
#60000
0"
#65000
b10000000 !
b10000000 4
b1100110011000 3
b1001011110011000 7
b0 '
b0 2
b0 1
b10111101 0
b1001110110 /
b10111101 .
b0 -
b0 ,
b1001110110 +
b0 *
b0 )
b11110100001 (
b1111110000 &
b11110100001 %
b0 $
1"
#70000
0"
#75000
b11111100 !
b11111100 4
b0 3
b1111110000 '
b0 6
b0 5
b1111110000 2
b1000110111000 1
b1101100 0
b1101110 /
b11 .
b1100001100 -
b1000011110111 ,
b1000011100 +
b1011101000111 *
b1100000010 )
b11011100111 (
b1011011000 &
b10011011 %
b1100000 $
1"
#80000
0"
#85000
b100101111 !
b100101111 4
b1100110011000 3
b0 7
b1011011000 '
b11000001110 6
b10100010011110 5
b11011101 2
b100110011110 1
b10000111 0
b1000100110 /
b1110010 .
b11000110010 -
b1000111000001 ,
b1000110000 +
b110101101010 *
b1001110001101 )
b10100010110 (
b1000100000 &
b10001011100 %
b100100 $
1"
#90000
0"
#95000
b111001100 !
b111001100 4
b110101010011 3
b10111010101100 7
b1000100000 '
b1100110111111 6
b1111101001111 5
b1100011111 2
b101110100010 1
b10101000 0
b100100010 /
b1101111 .
b1010100100 -
b1000101011100 ,
b1000100110 +
b1001011110000 *
b11111100101010 )
b1000101110 (
b100011000 &
b101010101 %
b1000010 $
1"
#100000
0"
#105000
b1000010 !
b1000010 4
b1000011100001 3
b11100100001110 7
b100011000 '
b100000111001110 6
b10010010001110 5
b1000111001 2
b10110101001 1
b111100 0
b101000000 /
b10011111 .
b1100001100 -
b11100011010 ,
b100001001001 *
b11010010100011 )
b101010101 (
b1101101000 &
b11111 %
b111100 $
1"
#110000
0"
#115000
b1010000 !
b1010000 4
b100011111010 3
b110011001011100 7
b1101101000 '
b11011110101111 6
b111110011111 5
b1000011011 2
b1110011010 1
b110110 0
b110010 /
b10010011 .
b10001000100 -
b101111010110 ,
b11110 +
b100101111 *
b1100000010 )
b11010001010 (
b1011011000 &
b11001001100 %
b1011010 $
1"
#120000
0"
#125000
b10111010 !
b10111010 4
b100100011101 3
b100011101001110 7
b1011011000 '
b11101000110 6
b110101011111 5
b11111011 2
b110011110100 1
b10111010 0
b111110100 /
b1001 .
b100011110 -
b10010111100 ,
b111111110 +
b1111110010 *
b110110001001 )
b111100000 &
b10010111001 %
1"
#130000
0"
#135000
b1111100 !
b1111100 4
b1000011000111 3
b1010010100101 7
b111100000 '
b111010100111 6
b100100001000 5
b1010110111 2
b110101000001 1
b1111110 0
b111000010 /
b110 .
b110111010 -
b1111110010 ,
b101000 +
b10110000110 *
b1100000010 )
b100110110 (
b1001100000 &
b10011011 %
b10001101 $
1"
#140000
0"
#145000
b111 !
b111 4
b1000111011000 3
b1011110101111 7
b1001100000 '
b10010111100 6
b101000000101 5
b1001000110 2
b111111001 1
b10001010 0
b1001100010 /
b1010111 .
b10101111100 -
b11111100100 ,
b10000010 +
b110101101010 *
b101110100111110 )
b110010011 (
b110100000 &
b1101000101 %
b1100110 $
1"
#150000
0"
#155000
b1011 !
b1011 4
b11010011111 3
b111011000001 7
b110100000 '
b110001010111010 6
b1010110110100 5
b1101000011 2
b10101011010 1
b10001101 0
b100011000 /
b1010100 .
b1110001110 -
b11001010 ,
b101111100 +
b1100101000 *
b110000001 )
b1111000001 (
b1001110000 &
b10111010 %
b10110100 $
1"
#160000
0"
#165000
b10000 !
b10000 4
b101000111101 3
b111100001101110 7
b1001110000 '
b10100001111 6
b10010100110 5
b111111001 2
b10111110111 1
b1011101 0
b110111000 /
b1001 .
b10011100 -
b100101111 ,
b1000111010 +
b1001101010101 *
b100111000110100 )
b1010001011 (
b1110001000 &
b11000001110 %
b10010110 $
1"
#170000
0"
#175000
b11011100 !
b11011100 4
b101001100000 3
b100110110101 7
b1110001000 '
b100111011010000 6
b1010100011010 5
b1000011110 2
b101011010011 1
b1111 0
b101111100 /
b1111011 .
b1000100010 -
b1010011101001 ,
b101000 +
b10111101011 *
b11111 (
b101001000 &
b10010111001 %
b11011 $
1"
#180000
0"
#185000
b111111110 !
b111111110 4
b1000001111001 3
b110001111101010 7
b101001000 '
b101000001010110 6
b1101011101111 5
b1000000110 2
b10100000000 1
b10100101 0
b1001101100 /
b1100 .
b110000110 -
b110010100 ,
b1010 +
b110111001111 *
b100111110110101 )
b11100000110 (
b1010110000 &
b10001011100 %
b1111110 $
1"
#190000
0"
#195000
b10100110 !
b10100110 4
b100001001110 3
b110101101000101 7
b1010110000 '
b101000100111011 6
b111111100001 5
b1100011101 2
b101101101100 1
b10000111 0
b10001100 /
b10110001 .
b10110110000 -
b1111110010 ,
b1001011000 +
b1010010000100 *
b11110000101000 )
b11001001100 (
b1101110000 &
b11111000 %
b10010000 $
1"
#200000
0"
#205000
b11000101 !
b11000101 4
b1000100111001 3
b110000100011100 7
b1101110000 '
b100000111011000 6
b1100100000110 5
b111000100 2
b100110011100 1
b1010111 0
b101000000 /
b1111011 .
b11000110010 -
b1011011100010 ,
b110011010 +
b1000000101101 *
b0 )
b1011101000 (
b100000 &
b1111000001 %
b1110101 $
1"
#210000
0"
#215000
b10011111 !
b10011111 4
b111011010000 3
b101101011011110 7
b100000 '
b11000110010 6
b10011110000100 5
b1000010010 2
b100001000011 1
b100001 0
b1000100110 /
b10100101 .
b10010101100 -
b1001000100110 ,
b101010100 +
b0 *
b100111110110101 )
b0 (
b110101000 &
b10011110111 %
b1101001 $
1"
#220000
0"
#225000
b10011000 !
b10011000 4
b101001110101 3
b10110110110110 7
b110101000 '
b101010001100001 6
b1001010001111 5
b1011101100 2
b11001001011 1
b1001011 0
b1001011000 /
b1110101 .
b1101110100 -
b10100100001 ,
b110000110 +
b1011000011000 *
b1000010001011 )
b10110010010 (
b1100011000 &
b11101000100 %
b1011101 $
1"
#230000
0"
#235000
b1000110 !
b1000110 4
b101011011111 3
b110011011110000 7
b1100011000 '
b1001111111111 6
b1101110010110 5
b1100011000 2
b111001011100 1
b10000111 0
b1111000 /
b10011001 .
b1010110110011 ,
b1000010010 +
b100001001001 *
b101000100110110 )
b1011101000 (
b110101000 &
b1100000111 %
b11110 $
1"
#240000
0"
#245000
b10111000 !
b10111000 4
b1010010001100 3
b10111110010101 7
b110101000 '
b101010010101010 6
b1111000011010 5
b110011000 2
b100000000001 1
b10110111 0
b1011010 /
b1110101 .
b10001000100 -
b1010101001110 ,
b1111000 +
b1001110111010 *
b11000000100000 )
b10110010010 (
b1000111000 &
b10001011100 %
b10110100 $
1"
#250000
0"
#255000
b110110 !
b110110 4
b101101000001 3
b111001011000100 7
b1000111000 '
b11010001100100 6
b10100110111100 5
b110000110 2
b101001100110 1
b10011001 0
b1001001110 /
b10000100 .
b10001111000 -
b1000000101101 ,
b100101100 +
b111010011001 *
b11110000101000 )
b1111111111 (
b1000100000 &
b111110 %
b1001110 $
1"
#260000
0"
#265000
b11001111 !
b11001111 4
b111000100100 3
b101111000100000 7
b1000100000 '
b100000010100000 6
b1111100010100 5
b1101101011 2
b10101101001 1
b101101 0
b101110010 /
b1011010 .
b11010 -
b1000101011100 ,
b100110110 +
b1100101000 *
b101101000111100 )
b11010001010 (
b111011000 &
b101010101 %
b1010001 $
1"
#270000
0"
#275000
b10011111 !
b10011111 4
b101011110100 3
b101111110110100 7
b111011000 '
b101101001010110 6
b1010011010101 5
b111111001 2
b100100010101 1
b1100011 0
b111110100 /
b10011001 .
b100011110 -
b11001010000 ,
b111001100 +
b100100010011 *
b100100000110 )
b10111101111 (
b101111000 &
b1101100100 %
b10111010 $
1"
#280000
0"
#285000
b10101001 !
b10101001 4
b110011100110 3
b110111100101011 7
b101111000 '
b101000100100 6
b1000000011101 5
b1011110000 2
b101100011111 1
b10110100 0
b111100000 /
b10010000 .
b11000110010 -
b1100001110110 ,
b101000000 +
b101111010110 *
b10010110011001 )
b10111010000 (
b100001000 &
b110010011 %
b11011 $
1"
#290000
0"
#295000
b11000100 !
b11000100 4
b111110000111 3
b1101001000001 7
b100001000 '
b10101111001011 6
b10010001100111 5
b1100100100 2
b100010100011 1
b110 0
b101110010 /
b1111110 .
b1010001010 -
b11010110101 ,
b1001101100 +
b100111011101 *
b10111010011111 )
b11100000110 (
b1110011000 &
b1011101000 %
b10101011 $
1"
#300000
0"
#305000
b10101 !
b10101 4
b110011001111 3
b101000000110010 7
b1110011000 '
b11000100101001 6
b1000100111101 5
b111110110 2
b110001011010 1
b10101 0
b11110 /
b1111011 .
b10110110 -
b1010110110011 ,
b11011100 +
b1010101001110 *
b10100010011011 )
b11111000 (
b1010001000 &
b10110111 $
1"
#310000
0"
#315000
b10000110 !
b10000110 4
b1000111101000 3
b100001001100110 7
b1010001000 '
b10100101010001 6
b10101110111000 5
b10101110 2
b10010111100 1
b1100011 0
b10111110 /
b11 .
b10001111000 -
b1011000011 ,
b10110100 +
b101100001100 *
b11000110100001 )
b10010011010 (
b101100000 &
b1000101110 %
b1011101 $
1"
#320000
0"
#325000
b1100000 !
b1100000 4
b11111110010 3
b101010100001001 7
b101100000 '
b11011000011001 6
b111000101100 5
b100100100 2
b11101111100 1
b110 0
b111110100 /
b10000100 .
b10101001000 -
b111111001000 ,
b110111000 +
b101001000010 *
b100101100110010 )
b101010101 (
b1000000000 &
b11010001010 %
b10000100 $
1"
#330000
0"
#335000
b10011010 !
b10011010 4
b101000000000 3
b100010001000101 7
b1000000000 '
b101000001111010 6
b1101010001110 5
b1001111110 2
b100110010111 1
b100100 0
b1001100010 /
b10101011 .
b10110110000 -
b101111010110 ,
b101011110 +
b11100011010 *
b10001010010111 )
b10100110101 (
b1000001000 &
b11001101011 %
b1111 $
1"
#340000
0"
#345000
b1110100 !
b1110100 4
b111000010101 3
b110101100001000 7
b1000001000 '
b10100001000111 6
b1001011111111 5
b1100110001 2
b110011111110 1
b1101100 0
b10111110 /
b111111 .
b10000010000 -
b1010010000100 ,
b101110010 +
b1001010001011 *
b10100010011011 )
b10000011110 (
b110100000 &
b1110000011 %
b1000010 $
1"
#350000
0"
#355000
b10111001 !
b10111001 4
b1001000110111 3
b11101101000110 7
b110100000 '
b10110010101011 6
b10011101010001 5
b101101001 2
b100100010011 1
b1011010 0
b110101110 /
b100100 .
b1000001000 -
b111000110100 ,
b1001001110 +
b1111110010 *
b10010110011001 )
b11001101011 (
b111001000 &
b10011110111 %
b10010 $
1"
#360000
0"
#365000
b1010010 !
b1010010 4
b110000011100 3
b101001111111100 7
b111001000 '
b10011110100001 6
b1001000111000 5
b1000101100 2
b110110110000 1
b110 0
b1000100110 /
b1011010 .
b10101100010 -
b100101111000 ,
b11110 +
b1001011110000 *
b10010000011 )
b11010101001 (
b1010110000 &
b1110100010 %
b10010110 $
1"
#370000
0"
#375000
b10001111 !
b10001111 4
b1000110100100 3
b11100111011001 7
b1010110000 '
b100111100101 6
b1110011111110 5
b1010000110 2
b101001101001 1
b10010011 0
b11011100 /
b11 .
b10001000100 -
b1011101000111 ,
b1001001110 +
b1100001110110 *
b110000001 )
b1011101 (
b11110000 &
b111110000 %
b1111011 $
1"
#380000
0"
#385000
b1010000 !
b1010000 4
b111110011111 3
b10011011100011 7
b11110000 '
b10111000101 6
b11000000111000 5
b101110010 2
b10010011011 1
b1001110 0
b10101010 /
b1001011 .
b110111010 -
b111111001 ,
b1100100 +
b1010010000100 *
b110110001001 )
b110110010 (
b101110000 &
b10111010000 %
b10001010 $
1"
#390000
0"
#395000
b101110 !
b101110 4
b11011111101 3
b11010111111101 7
b101110000 '
b111101000011 6
b1011100000111 5
b101000011 2
b11111100110 1
b110 0
b111000010 /
b1001 .
b10001111000 -
b11101111111 ,
b1111000 +
b1001000100110 *
b10101000011100 )
b1111000001 (
b111010000 &
b11111000 %
b1001011 $
1"
#400000
0"
#405000
b1011110 !
b1011110 4
b101010011001 3
b10011001001010 7
b111010000 '
b10111010010100 6
b1100111110000 5
b111010001 2
b10100110001 1
b10011001 0
b101110010 /
b111001 .
b10111100100 -
b1100100 +
b1011000011 *
b100101100110010 )
b100010111 (
b110000000 &
b1101100100 %
b11011 $
1"
#410000
0"
#415000
b110111 !
b110111 4
b100011010010 3
b100100010000100 7
b110000000 '
b101000100010110 6
b101001011101 5
b1001000100 2
b10011011111 1
b10010000 0
b10001100 /
b1000101 .
b1111011100 -
b100001001001 ,
b10110100 +
b111011111110 *
b101000100110110 )
b11000101101 (
b10010000 &
b1110100010 %
b1010001 $
1"
#420000
0"
#425000
b1111111 !
b1111111 4
b100010100011 3
b101101101110011 7
b10010000 '
b101010100010010 6
b1011110011000 5
b101100001 2
b101010000011 1
b1010100 0
b100011000 /
b1101100 .
b10011000110 -
b11010110101 ,
b1001101100 +
b1001011110 *
b11011110100101 )
b110110010 (
b110000000 &
b1101100100 %
b11 $
1"
#430000
0"
#435000
b10100101 !
b10100101 4
b110001110100 3
b110110010101010 7
b110000000 '
b11110001101011 6
b100100010110 5
b111011000 2
b11110000010 1
b100001 0
b101111100 /
b1110101 .
b1110101000 -
b1011110101100 ,
b1000011100 +
b1110001101 *
b100100110110001 )
b1111000001 (
b1000100000 &
b1001001101 %
b10001101 $
1"
#440000
0"
#445000
b11000000 !
b11000000 4
b101011011010 3
b100010110000001 7
b1000100000 '
b100110101011001 6
b1101111000110 5
b1000010010 2
b100000101010 1
b1000101 0
b110100100 /
b10010110 .
b10011000110 -
b100101111000 ,
b110010 +
b1010000011111 *
b11101010100111 )
b100110110 (
b1000000000 &
b11011001 %
b10101 $
1"
#450000
0"
#455000
b1110101 !
b1110101 4
b110001011100 3
b110100100011111 7
b1000000000 '
b11111101101101 6
b1110110101100 5
b1001111111 2
b1001000001 1
b10000100 0
b100100010 /
b10100010 .
b1010100100 -
b11001010000 ,
b10001100 +
b111111001000 *
b110110001001 )
b11101000100 (
b11110000 &
b1110100010 %
b10011111 $
1"
#460000
0"
#465000
b10111001 !
b10111001 4
b11011000000 3
b101110100011001 7
b11110000 '
b1000000101101 6
b1011010110111 5
b1001001000 2
b101101110010 1
b10000111 0
b1000110 /
b10011100 .
b1000100010 -
b1011101000111 ,
b101111100 +
b101010100111 *
b110000001 )
b1111100000 (
b100100000 &
b0 %
b10010011 $
1"
#470000
0"
#475000
b10101100 !
b10101100 4
b111010101010 3
b10011011100100 7
b100100000 '
b1110100011 6
b10001010000001 5
b101101001 2
b10101011100 1
b10101110 0
b10100000 /
b11000 .
b1101110100 -
b11101111111 ,
b101001010 +
b111010011001 *
b11000110100001 )
b10000011110 (
b111100000 &
b1011101 %
b1010111 $
1"
#480000
0"
#485000
b110000 !
b110000 4
b11111100101 3
b10011000100100 7
b111100000 '
b11010100010101 6
b1011001101111 5
b101100110 2
b10111000101 1
b10110111 0
b110111000 /
b1100 .
b1110001110 -
b101001000010 ,
b101011110 +
b1110001101 *
b11111100101010 )
b10011011000 (
b110011000 &
b1100100110 %
b100111 $
1"
#490000
0"
#495000
b111100 !
b111100 4
b100100001011 3
b100101110000100 7
b110011000 '
b100001010111000 6
b110111110110 5
b1001111011 2
b100101011100 1
b1111011 0
b101111100 /
b1111011 .
b110100 -
b1100000010001 ,
b111001100 +
b1001101010101 *
b11101010100111 )
b111110000 (
b1001101000 &
b0 %
b100001 $
1"
#500000
0"
#505000
b10000100 !
b10000100 4
b110101101111 3
b101000010101110 7
b1001101000 '
b11101011011011 6
b10101110000111 5
b1001110010 2
b1110111100 1
b111001 0
b1101110 /
b10010 .
b10111100100 -
b1000101011100 ,
b111000010 +
b1010110110011 *
b1111000010100 )
b111010001 (
b111000000 &
b11001101011 %
b1110010 $
1"
#510000
0"
#515000
b10000110 !
b10000110 4
b100010010110 3
b110011001100010 7
b111000000 '
b10001111111000 6
b10011110000001 5
b10111001 2
b100111111110 1
b1101111 0
b1010000 /
b1100110 .
b10110110 -
b101101110001 ,
b110111000 +
b100010101110 *
b10011100011010 )
b1110100010 (
b101000000 &
b11001001100 %
b1100 $
1"
#520000
0"
#525000
b10111011 !
b10111011 4
b110001110111 3
b100101101111001 7
b101000000 '
b10011111010000 6
b1010000101011 5
b100100101 2
b101110100110 1
b1010111 0
b111001100 /
b10110001 .
b10010010010 -
b10001010111 ,
b110100100 +
b1001101010101 *
b101011100111010 )
b1010101010 (
b110000000 &
b1001001101 %
b0 $
1"
#530000
0"
#535000
b1111110 !
b1111110 4
b111000001011 3
b11101111111011 7
b110000000 '
b101101111001100 6
b1011110101100 5
b1011010100 2
b11010011011 1
b10101000 0
b1101110 /
b1100000 .
b11101010 -
b110111001111 ,
b100110110 +
b111101100011 *
b100001110101101 )
b11100000110 (
b1000001000 &
b11010001010 %
1"
#540000
0"
#545000
b1011011 !
b1011011 4
b101011101111 3
b111001101111000 7
b1000001000 '
b100010010010111 6
b1110100110010 5
b101110110 2
b111011000110 1
b1010100 0
b111000010 /
b10110100 .
b11010000 -
b101100001100 ,
b1010000 +
b1010010000100 *
b100100000110000 )
b11011001 (
b111011000 &
b10110110001 %
1"
#550000
0"
#555000
b11010001 !
b11010001 4
b1001001000100 3
b110000111001001 7
b111011000 '
b100100100000000 6
b1111110010000 5
b1011001010 2
b11011011010 1
b1001000 0
b11010010 /
b1101111 .
b110111010 -
b110010100000 ,
b111101010 +
b1000000101101 *
b11000110100001 )
b11001001100 (
b1001011000 &
b11000001110 %
b1000010 $
1"
#560000
0"
#565000
b10011111 !
b10011111 4
b101101111100 3
b110100010010000 7
b1001011000 '
b11001101011011 6
b1110100001111 5
b110001001 2
b111001000100 1
b10000001 0
b110011010 /
b1001011 .
b10000010 -
b11100011010 ,
b10110100 +
b10110000110 *
b110110001001 )
b11011001000 (
b110100000 &
b1001101100 %
b1101111 $
1"
#570000
0"
#575000
b10111010 !
b10111010 4
b1001000100101 3
b101000001101010 7
b110100000 '
b111000001011 6
b110100001111 5
b1001100110 2
b100111101000 1
b10110001 0
b10000010 /
b11110 .
b1000111100 -
b10001010111 ,
b11011100 +
b1011000011 *
b1110010010011 )
b1010001011 (
b100010000 &
b1011101000 %
b1100110 $
1"
#580000
0"
#585000
b1111100 !
b1111100 4
b110111101110 3
b1101100011010 7
b100010000 '
b1111011001111 6
b11110000000 5
b101010001 2
b11001001111 1
b1010111 0
b1001101100 /
b10100101 .
b10010010010 -
b100101111 ,
b100100010 +
b1010101001110 *
b11110110101001 )
b10101010100 (
b1000010000 &
b10011011000 %
b1111 $
1"
#590000
0"
#595000
b11010 !
b11010 4
b100010110000 3
b10011001001111 7
b1000010000 '
b100001000111011 6
b1011010001100 5
b1101101000 2
b101101001110 1
b1101100 0
b111110100 /
b10100010 .
b10100101110 -
b10110000110 ,
b111100 +
b1100001110110 *
b10101110011101 )
b1100000111 (
b1000000000 &
b1101100100 %
b111001 $
1"
#600000
0"
#605000
b111011 !
b111011 4
b1000011000110 3
b101100011000111 7
b1000000000 '
b11000011001011 6
b1111000110101 5
b1100000010 2
b11010100111 1
b10110100 0
b10010110 /
b1000101 .
b10110110 -
b111011111110 ,
b111100000 +
b1000101011100 *
b100001000101100 )
b10001111011 (
b1001101000 &
b10011011 %
b1001011 $
1"
#610000
0"
#615000
b10010000 !
b10010000 4
b101110101001 3
b100111100000000 7
b1001101000 '
b100001011100010 6
b10000010100101 5
b110001111 2
b11011110110 1
b1000010 0
b11110 /
b10101000 .
b101010010 -
b1000011110111 *
b10100010011011 )
b100010111 (
b1001110000 &
b1111100 %
b10110111 $
1"
#620000
0"
#625000
b10000110 !
b10000110 4
b101011101101 3
b110001110000111 7
b1001110000 '
b10100111101101 6
b10000010101100 5
b100001000 2
b1101110011 1
b1111 0
b10101010 /
b1110101 .
b1000001000 -
b110101101010 ,
b11111010 +
b11101111111 *
b101101110111101 )
b1001101100 (
b1100010000 &
b1001001101 %
b1011010 $
1"
#630000
0"
#635000
b10110001 !
b10110001 4
b11011101011 3
b100101010011001 7
b1100010000 '
b101110111000101 6
b1010101000011 5
b100101110 2
b10110110011 1
b10011100 0
b111101010 /
b10011111 .
b10001000100 -
b10010111100 ,
b110011010 +
b1000011110111 *
b101001010110111 )
b110010011 (
b110011000 &
b110010011 %
b1001 $
1"
#640000
0"
#645000
b10000111 !
b10000111 4
b100111110001 3
b111001100001000 7
b110011000 '
b101011011111011 6
b1010110111100 5
b1100100101 2
b10011000000 1
b1010001 0
b111110100 /
b10010 .
b111101110 -
b1001000100110 ,
b1001001110 +
b10001010111 *
b11010010100011 )
b1110100010 (
b1010110000 &
b10011011000 %
b0 $
1"
#650000
0"
#655000
b11010010 !
b11010010 4
b100101111101 3
b110110010110111 7
b1010110000 '
b11011010010001 6
b1011001111101 5
b1001010111 2
b101011001000 1
b1001 0
b1001000100 /
b110110 .
b1101011010 -
b110000111011 ,
b10001100 +
b101001000010 *
b111100001010 )
b110010011 (
b111010000 &
b1011101 %
b1001110 $
1"
#660000
0"
#665000
b11000110 !
b11000110 4
b111111001111 3
b100110100001110 7
b111010000 '
b1001001100100 6
b1011011001011 5
b1010000011 2
b1001111100 1
b1010001 0
b101000000 /
b111100 .
b100011110 -
b1100101000 ,
b0 +
b1000111000001 *
b100001000101100 )
b11010101001 (
b100010000 &
b11001101011 %
b1101001 $
1"
#670000
0"
#675000
b1111010 !
b1111010 4
b11011001111 3
b10100100101111 7
b100010000 '
b100001101001010 6
b1010101010010 5
b111001101 2
b110100010100 1
b111001 0
b100100010 /
b1011010 .
b1100001100 -
b111111001000 ,
b111010110 +
b1001101010101 *
b100110010110011 )
b10111101111 (
b111100000 &
b10000011110 %
b10000001 $
1"
#680000
0"
#685000
b1000100 !
b1000100 4
b111111110001 3
b101100010011100 7
b111100000 '
b100111110111111 6
b10001110011110 5
b110110101 2
b101111100011 1
b10111010 0
b10110100 /
b10110110 -
b100101111000 ,
b1000110000 +
b100100010011 *
b101001010110111 )
b1111000001 (
b11010000 &
b111010001 %
b10101 $
1"
#690000
0"
#695000
b10010001 !
b10010001 4
b111101111000 3
b111001101011101 7
b11010000 '
b101001101101101 6
b1001010100000 5
b111001000 2
b11111000010 1
b10011100 0
b10010110 /
b10001101 .
b1111000010 -
b1010101001110 ,
b10100 +
b100010101110 *
b1001110001101 )
b100010111 (
b111000000 &
b100010111 %
b10000100 $
1"
#700000
0"
#705000
b11000111 !
b11000111 4
b101001011010 3
b110011000001101 7
b111000000 '
b1011101001111 6
b1111010000000 5
b110111111 2
b1001000010 1
b100100 0
b1100100 /
b10011111 .
b1001011110 ,
b111001100 +
b111101100011 *
b100111000110100 )
b1101000101 (
b1110101000 &
b1000101110 %
b111001 $
1"
#710000
0"
#715000
b10110111 !
b10110111 4
b10111000001 3
b11010111001111 7
b1110101000 '
b101000111110110 6
b1000111111010 5
b100100111 2
b11100111111 1
b1100011 0
b10100000 /
b10101 .
b110100000 -
b11101111111 ,
b11010010 +
b111010011001 *
b11110000101 )
b10010011010 (
b1011001000 &
b11111 %
b11000 $
1"
#720000
0"
#725000
b1100000 !
b1100000 4
b110000001110 3
b110001111110000 7
b1011001000 '
b100100100101 6
b1011000110000 5
b100011000 2
b10110001011 1
b110110 0
b10100 /
b1001 .
b1011011000 -
b1001011110 ,
b10111110 +
b10111101011 *
b10010110011001 )
b10100110101 (
b101000000 &
b110110010 %
b111001 $
1"
#730000
0"
#735000
b10101111 !
b10101111 4
b100101101011 3
b1111101010101 7
b101000000 '
b10100001110001 6
b100010000010 5
b1010011 2
b11110100101 1
b10101 0
b10010110 /
b111001 .
b100111000 -
b10001010111 ,
b1001100010 +
b100100010011 *
b10011100011010 )
b11101100011 (
b100000000 &
b11001001100 %
b1010001 $
1"
#740000
0"
#745000
b101011 !
b101011 4
b100100111000 3
b11000011110011 7
b100000000 '
b10100001010010 6
b110110111011 5
b11100100 2
b1000000010001 1
b1011101 0
b1000001000 /
b101010 .
b10111001010 -
b11100011010 ,
b101110010 +
b1001000100110 *
b1111110010101 )
b1001101100 (
b1100010000 &
b10010011010 %
b10011111 $
1"
#750000
0"
#755000
b1001111 !
b1001111 4
b1000111110101 3
b11011000001101 7
b1100010000 '
b10010101011111 6
b1100111011111 5
b1010001111 2
b100001111000 1
b10100010 0
b1000110 /
b1111000 .
b10111100100 -
b10001010111 ,
b1000110000 +
b1011000011000 *
b100001110101101 )
b11100100101 (
b1010111000 &
b111110 %
b1010111 $
1"
#760000
0"
#765000
b1001000 !
b1001000 4
b111000010111 3
b11111100111110 7
b1010111000 '
b100100110010001 6
b1101011000110 5
b101100000 2
b100110010011 1
b10011001 0
b1000111010 /
b11110 .
b10110110000 -
b110111001111 ,
b1001000100 +
b1000101011100 *
b11100100100110 )
b11010101001 (
b110110000 &
b111110000 %
b10010000 $
1"
#770000
0"
#775000
b1100010 !
b1100010 4
b110110101011 3
b110010001010111 7
b110110000 '
b11111011010110 6
b1111110111011 5
b1011110001 2
b101011011101 1
b11000 0
b101101000 /
b101010 .
b1101000000 -
b111011111110 ,
b1011010 +
b101001000010 *
b101001010110111 )
b10000011110 (
b1100000 &
b11001001100 %
b10001010 $
1"
#780000
0"
#785000
b10101101 !
b10101101 4
b111101111110 3
b101111010010001 7
b1100000 '
b101010111110111 6
b1100111001010 5
b110101010 2
b101011000100 1
b10011100 0
b1100100 /
b1001011 .
b10000010 -
b1001011110 ,
b101110010 +
b1010000011111 *
b100101100110010 )
b10101010100 (
b100110000 &
b1001101100 %
b111100 $
1"
#790000
0"
#795000
b10011110 !
b10011110 4
b110011001110 3
b110111111000001 7
b100110000 '
b100101110110100 6
b1011010111001 5
b101001011 2
b100100110010 1
b10010000 0
b110010 /
b1010100 .
b1010111110 -
b1000111000001 ,
b1010000 +
b100101111000 *
b1100110010001 )
b11101000100 (
b100000000 &
b11011100111 %
b10100101 $
1"
#800000
0"
#805000
b11000101 !
b11000101 4
b101110101101 3
b110001001101101 7
b100000000 '
b1110001001111 6
b1101111011110 5
b100010110 2
b111001111011 1
b101101 0
b111110100 /
b1001110 .
b11001001100 -
b1111110010 ,
b1001100010 +
b11001010000 *
b1111110010101 )
b11010101001 (
b1000111000 &
b1010001011 %
b111100 $
1"
#810000
0"
#815000
b10101101 !
b10101101 4
b1000010010001 3
b11100000101101 7
b1000111000 '
b10010111100001 6
b101001111110 5
b1001101111 2
b101110010110 1
b1100000 0
b111010110 /
b10010110 .
b10110010110 -
b110111001111 ,
b111001100 +
b1010000011111 *
b10010110011001 )
b1001001101 (
b10101000 &
b1011101 %
b1011101 $
1"
#820000
0"
#825000
b1001111 !
b1001111 4
b1000000111101 3
b11000001011111 7
b10101000 '
b10101100101111 6
b10001001001011 5
b1011001100 2
b10001110110 1
b110000 0
b11111010 /
b10101110 .
b10111111110 -
b101001000010 ,
b1000010010 +
b1011101000111 *
b11110110101001 )
b11101000100 (
b1000111000 &
b11010101001 %
b10011111 $
1"
#830000
0"
#835000
b1000000 !
b1000000 4
b11111101010 3
b100110101111010 7
b1000111000 '
b100001110100111 6
b10001000101000 5
b111011000 2
b111111111111 1
b1011101 0
b10110100 /
b10001111000 -
b100001001001 ,
b100011000 +
b1000101011100 *
b10000100010110 )
b11100000110 (
b1011010000 &
b10100110101 %
b11 $
1"
#840000
0"
